%TF.GenerationSoftware,KiCad,Pcbnew,(6.0.6)*%
%TF.CreationDate,2022-07-25T09:18:07-07:00*%
%TF.ProjectId,paged-rom-ram-1mb,70616765-642d-4726-9f6d-2d72616d2d31,rev?*%
%TF.SameCoordinates,PX5d65c40PY7d10a68*%
%TF.FileFunction,Legend,Top*%
%TF.FilePolarity,Positive*%
%FSLAX46Y46*%
G04 Gerber Fmt 4.6, Leading zero omitted, Abs format (unit mm)*
G04 Created by KiCad (PCBNEW (6.0.6)) date 2022-07-25 09:18:07*
%MOMM*%
%LPD*%
G01*
G04 APERTURE LIST*
%ADD10C,0.200000*%
%ADD11C,0.150000*%
%ADD12C,0.250000*%
%ADD13C,0.300000*%
%ADD14C,0.120000*%
%ADD15C,3.200000*%
G04 APERTURE END LIST*
D10*
X2997200Y233680D02*
X3032760Y233680D01*
X246380Y233680D02*
X246380Y9164320D01*
X246380Y9164320D02*
X1427480Y10345420D01*
X2997200Y10345420D02*
X2997200Y233680D01*
X1427480Y10345420D02*
X2997200Y10345420D01*
D11*
X88350838Y38016772D02*
X88303219Y37921534D01*
X88303219Y37731058D01*
X88350838Y37635820D01*
X88446076Y37588200D01*
X88493695Y37588200D01*
X88588933Y37635820D01*
X88636552Y37731058D01*
X88636552Y37873915D01*
X88684171Y37969153D01*
X88779409Y38016772D01*
X88827028Y38016772D01*
X88922266Y37969153D01*
X88969885Y37873915D01*
X88969885Y37731058D01*
X88922266Y37635820D01*
X88350838Y36731058D02*
X88303219Y36826296D01*
X88303219Y37016772D01*
X88350838Y37112010D01*
X88398457Y37159629D01*
X88493695Y37207248D01*
X88779409Y37207248D01*
X88874647Y37159629D01*
X88922266Y37112010D01*
X88969885Y37016772D01*
X88969885Y36826296D01*
X88922266Y36731058D01*
X88303219Y36159629D02*
X88350838Y36254867D01*
X88398457Y36302486D01*
X88493695Y36350105D01*
X88779409Y36350105D01*
X88874647Y36302486D01*
X88922266Y36254867D01*
X88969885Y36159629D01*
X88969885Y36016772D01*
X88922266Y35921534D01*
X88874647Y35873915D01*
X88779409Y35826296D01*
X88493695Y35826296D01*
X88398457Y35873915D01*
X88350838Y35921534D01*
X88303219Y36016772D01*
X88303219Y36159629D01*
X88969885Y35540581D02*
X88969885Y35159629D01*
X89303219Y35397724D02*
X88446076Y35397724D01*
X88350838Y35350105D01*
X88303219Y35254867D01*
X88303219Y35159629D01*
X88969885Y34969153D02*
X88969885Y34588200D01*
X89303219Y34826296D02*
X88446076Y34826296D01*
X88350838Y34778677D01*
X88303219Y34683439D01*
X88303219Y34588200D01*
X88779409Y33635820D02*
X88827028Y33683439D01*
X88874647Y33778677D01*
X88874647Y33873915D01*
X88827028Y33969153D01*
X88779409Y34016772D01*
X88684171Y34064391D01*
X88588933Y34064391D01*
X88493695Y34016772D01*
X88446076Y33969153D01*
X88398457Y33873915D01*
X88398457Y33778677D01*
X88446076Y33683439D01*
X88493695Y33635820D01*
X88874647Y33635820D02*
X88493695Y33635820D01*
X88446076Y33588200D01*
X88446076Y33540581D01*
X88493695Y33445343D01*
X88588933Y33397724D01*
X88827028Y33397724D01*
X88969885Y33492962D01*
X89065123Y33635820D01*
X89112742Y33826296D01*
X89065123Y34016772D01*
X88969885Y34159629D01*
X88827028Y34254867D01*
X88636552Y34302486D01*
X88446076Y34254867D01*
X88303219Y34159629D01*
X88207980Y34016772D01*
X88160361Y33826296D01*
X88207980Y33635820D01*
X88303219Y33492962D01*
X88303219Y32540581D02*
X88827028Y32540581D01*
X88922266Y32588200D01*
X88969885Y32683439D01*
X88969885Y32873915D01*
X88922266Y32969153D01*
X88350838Y32540581D02*
X88303219Y32635820D01*
X88303219Y32873915D01*
X88350838Y32969153D01*
X88446076Y33016772D01*
X88541314Y33016772D01*
X88636552Y32969153D01*
X88684171Y32873915D01*
X88684171Y32635820D01*
X88731790Y32540581D01*
X88303219Y31921534D02*
X88350838Y32016772D01*
X88446076Y32064391D01*
X89303219Y32064391D01*
X88969885Y31683439D02*
X88969885Y31302486D01*
X88303219Y31540581D02*
X89160361Y31540581D01*
X89255600Y31492962D01*
X89303219Y31397724D01*
X89303219Y31302486D01*
X88969885Y31112010D02*
X88969885Y30731058D01*
X89303219Y30969153D02*
X88446076Y30969153D01*
X88350838Y30921534D01*
X88303219Y30826296D01*
X88303219Y30731058D01*
X88350838Y30016772D02*
X88303219Y30112010D01*
X88303219Y30302486D01*
X88350838Y30397724D01*
X88446076Y30445343D01*
X88827028Y30445343D01*
X88922266Y30397724D01*
X88969885Y30302486D01*
X88969885Y30112010D01*
X88922266Y30016772D01*
X88827028Y29969153D01*
X88731790Y29969153D01*
X88636552Y30445343D01*
X88303219Y29540581D02*
X88969885Y29540581D01*
X88779409Y29540581D02*
X88874647Y29492962D01*
X88922266Y29445343D01*
X88969885Y29350105D01*
X88969885Y29254867D01*
X88398457Y28921534D02*
X88350838Y28873915D01*
X88303219Y28921534D01*
X88350838Y28969153D01*
X88398457Y28921534D01*
X88303219Y28921534D01*
X88969885Y28016772D02*
X88303219Y28016772D01*
X88969885Y28445343D02*
X88446076Y28445343D01*
X88350838Y28397724D01*
X88303219Y28302486D01*
X88303219Y28159629D01*
X88350838Y28064391D01*
X88398457Y28016772D01*
X88350838Y27588200D02*
X88303219Y27492962D01*
X88303219Y27302486D01*
X88350838Y27207248D01*
X88446076Y27159629D01*
X88493695Y27159629D01*
X88588933Y27207248D01*
X88636552Y27302486D01*
X88636552Y27445343D01*
X88684171Y27540581D01*
X88779409Y27588200D01*
X88827028Y27588200D01*
X88922266Y27540581D01*
X88969885Y27445343D01*
X88969885Y27302486D01*
X88922266Y27207248D01*
D12*
X93905838Y43889867D02*
X93905838Y45032724D01*
X93905838Y44461296D02*
X95905838Y44461296D01*
X95620123Y44651772D01*
X95429647Y44842248D01*
X95334409Y45032724D01*
X93905838Y43032724D02*
X95905838Y43032724D01*
X94477266Y42366058D01*
X95905838Y41699391D01*
X93905838Y41699391D01*
X94953457Y40080343D02*
X94858219Y39794629D01*
X94762980Y39699391D01*
X94572504Y39604153D01*
X94286790Y39604153D01*
X94096314Y39699391D01*
X94001076Y39794629D01*
X93905838Y39985105D01*
X93905838Y40747010D01*
X95905838Y40747010D01*
X95905838Y40080343D01*
X95810600Y39889867D01*
X95715361Y39794629D01*
X95524885Y39699391D01*
X95334409Y39699391D01*
X95143933Y39794629D01*
X95048695Y39889867D01*
X94953457Y40080343D01*
X94953457Y40747010D01*
X93905838Y37223200D02*
X95905838Y37223200D01*
X95905838Y36461296D01*
X95810600Y36270820D01*
X95715361Y36175581D01*
X95524885Y36080343D01*
X95239171Y36080343D01*
X95048695Y36175581D01*
X94953457Y36270820D01*
X94858219Y36461296D01*
X94858219Y37223200D01*
X93905838Y34366058D02*
X94953457Y34366058D01*
X95143933Y34461296D01*
X95239171Y34651772D01*
X95239171Y35032724D01*
X95143933Y35223200D01*
X94001076Y34366058D02*
X93905838Y34556534D01*
X93905838Y35032724D01*
X94001076Y35223200D01*
X94191552Y35318439D01*
X94382028Y35318439D01*
X94572504Y35223200D01*
X94667742Y35032724D01*
X94667742Y34556534D01*
X94762980Y34366058D01*
X95239171Y32556534D02*
X93620123Y32556534D01*
X93429647Y32651772D01*
X93334409Y32747010D01*
X93239171Y32937486D01*
X93239171Y33223200D01*
X93334409Y33413677D01*
X94001076Y32556534D02*
X93905838Y32747010D01*
X93905838Y33127962D01*
X94001076Y33318439D01*
X94096314Y33413677D01*
X94286790Y33508915D01*
X94858219Y33508915D01*
X95048695Y33413677D01*
X95143933Y33318439D01*
X95239171Y33127962D01*
X95239171Y32747010D01*
X95143933Y32556534D01*
X94001076Y30842248D02*
X93905838Y31032724D01*
X93905838Y31413677D01*
X94001076Y31604153D01*
X94191552Y31699391D01*
X94953457Y31699391D01*
X95143933Y31604153D01*
X95239171Y31413677D01*
X95239171Y31032724D01*
X95143933Y30842248D01*
X94953457Y30747010D01*
X94762980Y30747010D01*
X94572504Y31699391D01*
X93905838Y29032724D02*
X95905838Y29032724D01*
X94001076Y29032724D02*
X93905838Y29223200D01*
X93905838Y29604153D01*
X94001076Y29794629D01*
X94096314Y29889867D01*
X94286790Y29985105D01*
X94858219Y29985105D01*
X95048695Y29889867D01*
X95143933Y29794629D01*
X95239171Y29604153D01*
X95239171Y29223200D01*
X95143933Y29032724D01*
X93905838Y25413677D02*
X94858219Y26080343D01*
X93905838Y26556534D02*
X95905838Y26556534D01*
X95905838Y25794629D01*
X95810600Y25604153D01*
X95715361Y25508915D01*
X95524885Y25413677D01*
X95239171Y25413677D01*
X95048695Y25508915D01*
X94953457Y25604153D01*
X94858219Y25794629D01*
X94858219Y26556534D01*
X94477266Y24651772D02*
X94477266Y23699391D01*
X93905838Y24842248D02*
X95905838Y24175581D01*
X93905838Y23508915D01*
X93905838Y22842248D02*
X95905838Y22842248D01*
X94477266Y22175581D01*
X95905838Y21508915D01*
X93905838Y21508915D01*
X92685838Y44937486D02*
X92685838Y45889867D01*
X91733457Y45985105D01*
X91828695Y45889867D01*
X91923933Y45699391D01*
X91923933Y45223200D01*
X91828695Y45032724D01*
X91733457Y44937486D01*
X91542980Y44842248D01*
X91066790Y44842248D01*
X90876314Y44937486D01*
X90781076Y45032724D01*
X90685838Y45223200D01*
X90685838Y45699391D01*
X90781076Y45889867D01*
X90876314Y45985105D01*
X90685838Y42937486D02*
X90685838Y44080343D01*
X90685838Y43508915D02*
X92685838Y43508915D01*
X92400123Y43699391D01*
X92209647Y43889867D01*
X92114409Y44080343D01*
X92495361Y42175581D02*
X92590600Y42080343D01*
X92685838Y41889867D01*
X92685838Y41413677D01*
X92590600Y41223200D01*
X92495361Y41127962D01*
X92304885Y41032724D01*
X92114409Y41032724D01*
X91828695Y41127962D01*
X90685838Y42270820D01*
X90685838Y41032724D01*
X90685838Y40175581D02*
X92685838Y40175581D01*
X90685838Y39032724D02*
X91828695Y39889867D01*
X92685838Y39032724D02*
X91542980Y40175581D01*
X90685838Y36651772D02*
X92685838Y36651772D01*
X92685838Y35889867D01*
X92590600Y35699391D01*
X92495361Y35604153D01*
X92304885Y35508915D01*
X92019171Y35508915D01*
X91828695Y35604153D01*
X91733457Y35699391D01*
X91638219Y35889867D01*
X91638219Y36651772D01*
X90685838Y33794629D02*
X91733457Y33794629D01*
X91923933Y33889867D01*
X92019171Y34080343D01*
X92019171Y34461296D01*
X91923933Y34651772D01*
X90781076Y33794629D02*
X90685838Y33985105D01*
X90685838Y34461296D01*
X90781076Y34651772D01*
X90971552Y34747010D01*
X91162028Y34747010D01*
X91352504Y34651772D01*
X91447742Y34461296D01*
X91447742Y33985105D01*
X91542980Y33794629D01*
X92019171Y31985105D02*
X90400123Y31985105D01*
X90209647Y32080343D01*
X90114409Y32175581D01*
X90019171Y32366058D01*
X90019171Y32651772D01*
X90114409Y32842248D01*
X90781076Y31985105D02*
X90685838Y32175581D01*
X90685838Y32556534D01*
X90781076Y32747010D01*
X90876314Y32842248D01*
X91066790Y32937486D01*
X91638219Y32937486D01*
X91828695Y32842248D01*
X91923933Y32747010D01*
X92019171Y32556534D01*
X92019171Y32175581D01*
X91923933Y31985105D01*
X90781076Y30270820D02*
X90685838Y30461296D01*
X90685838Y30842248D01*
X90781076Y31032724D01*
X90971552Y31127962D01*
X91733457Y31127962D01*
X91923933Y31032724D01*
X92019171Y30842248D01*
X92019171Y30461296D01*
X91923933Y30270820D01*
X91733457Y30175581D01*
X91542980Y30175581D01*
X91352504Y31127962D01*
X90685838Y28461296D02*
X92685838Y28461296D01*
X90781076Y28461296D02*
X90685838Y28651772D01*
X90685838Y29032724D01*
X90781076Y29223200D01*
X90876314Y29318439D01*
X91066790Y29413677D01*
X91638219Y29413677D01*
X91828695Y29318439D01*
X91923933Y29223200D01*
X92019171Y29032724D01*
X92019171Y28651772D01*
X91923933Y28461296D01*
X90685838Y24842248D02*
X91638219Y25508915D01*
X90685838Y25985105D02*
X92685838Y25985105D01*
X92685838Y25223200D01*
X92590600Y25032724D01*
X92495361Y24937486D01*
X92304885Y24842248D01*
X92019171Y24842248D01*
X91828695Y24937486D01*
X91733457Y25032724D01*
X91638219Y25223200D01*
X91638219Y25985105D01*
X92685838Y23604153D02*
X92685838Y23223200D01*
X92590600Y23032724D01*
X92400123Y22842248D01*
X92019171Y22747010D01*
X91352504Y22747010D01*
X90971552Y22842248D01*
X90781076Y23032724D01*
X90685838Y23223200D01*
X90685838Y23604153D01*
X90781076Y23794629D01*
X90971552Y23985105D01*
X91352504Y24080343D01*
X92019171Y24080343D01*
X92400123Y23985105D01*
X92590600Y23794629D01*
X92685838Y23604153D01*
X90685838Y21889867D02*
X92685838Y21889867D01*
X91257266Y21223200D01*
X92685838Y20556534D01*
X90685838Y20556534D01*
D13*
X2461651Y4049735D02*
X961651Y4049735D01*
X961651Y4621163D01*
X1033080Y4764020D01*
X1104508Y4835449D01*
X1247365Y4906878D01*
X1461651Y4906878D01*
X1604508Y4835449D01*
X1675937Y4764020D01*
X1747365Y4621163D01*
X1747365Y4049735D01*
X2461651Y5549735D02*
X1461651Y5549735D01*
X961651Y5549735D02*
X1033080Y5478306D01*
X1104508Y5549735D01*
X1033080Y5621163D01*
X961651Y5549735D01*
X1104508Y5549735D01*
X1461651Y6264020D02*
X2461651Y6264020D01*
X1604508Y6264020D02*
X1533080Y6335449D01*
X1461651Y6478306D01*
X1461651Y6692592D01*
X1533080Y6835449D01*
X1675937Y6906878D01*
X2461651Y6906878D01*
X2461651Y9549735D02*
X2461651Y8692592D01*
X2461651Y9121163D02*
X961651Y9121163D01*
X1175937Y8978306D01*
X1318794Y8835449D01*
X1390222Y8692592D01*
D11*
%TO.C,J1*%
X-1074220Y1419267D02*
X-359934Y1419267D01*
X-217077Y1371648D01*
X-121839Y1276410D01*
X-74220Y1133553D01*
X-74220Y1038315D01*
X-74220Y2419267D02*
X-74220Y1847839D01*
X-74220Y2133553D02*
X-1074220Y2133553D01*
X-931362Y2038315D01*
X-836124Y1943077D01*
X-788505Y1847839D01*
%TO.C,R5*%
X62743933Y45691820D02*
X62410600Y46168010D01*
X62172504Y45691820D02*
X62172504Y46691820D01*
X62553457Y46691820D01*
X62648695Y46644200D01*
X62696314Y46596581D01*
X62743933Y46501343D01*
X62743933Y46358486D01*
X62696314Y46263248D01*
X62648695Y46215629D01*
X62553457Y46168010D01*
X62172504Y46168010D01*
X63648695Y46691820D02*
X63172504Y46691820D01*
X63124885Y46215629D01*
X63172504Y46263248D01*
X63267742Y46310867D01*
X63505838Y46310867D01*
X63601076Y46263248D01*
X63648695Y46215629D01*
X63696314Y46120391D01*
X63696314Y45882296D01*
X63648695Y45787058D01*
X63601076Y45739439D01*
X63505838Y45691820D01*
X63267742Y45691820D01*
X63172504Y45739439D01*
X63124885Y45787058D01*
%TO.C,U3*%
X71483695Y48437820D02*
X71483695Y47628296D01*
X71531314Y47533058D01*
X71578933Y47485439D01*
X71674171Y47437820D01*
X71864647Y47437820D01*
X71959885Y47485439D01*
X72007504Y47533058D01*
X72055123Y47628296D01*
X72055123Y48437820D01*
X72436076Y48437820D02*
X73055123Y48437820D01*
X72721790Y48056867D01*
X72864647Y48056867D01*
X72959885Y48009248D01*
X73007504Y47961629D01*
X73055123Y47866391D01*
X73055123Y47628296D01*
X73007504Y47533058D01*
X72959885Y47485439D01*
X72864647Y47437820D01*
X72578933Y47437820D01*
X72483695Y47485439D01*
X72436076Y47533058D01*
%TO.C,U1*%
X29573695Y48372820D02*
X29573695Y47563296D01*
X29621314Y47468058D01*
X29668933Y47420439D01*
X29764171Y47372820D01*
X29954647Y47372820D01*
X30049885Y47420439D01*
X30097504Y47468058D01*
X30145123Y47563296D01*
X30145123Y48372820D01*
X31145123Y47372820D02*
X30573695Y47372820D01*
X30859409Y47372820D02*
X30859409Y48372820D01*
X30764171Y48229962D01*
X30668933Y48134724D01*
X30573695Y48087105D01*
%TO.C,R7*%
X64409980Y6068534D02*
X63933790Y5735200D01*
X64409980Y5497105D02*
X63409980Y5497105D01*
X63409980Y5878058D01*
X63457600Y5973296D01*
X63505219Y6020915D01*
X63600457Y6068534D01*
X63743314Y6068534D01*
X63838552Y6020915D01*
X63886171Y5973296D01*
X63933790Y5878058D01*
X63933790Y5497105D01*
X63409980Y6401867D02*
X63409980Y7068534D01*
X64409980Y6639962D01*
%TO.C,C3*%
X72078933Y22038058D02*
X72031314Y21990439D01*
X71888457Y21942820D01*
X71793219Y21942820D01*
X71650361Y21990439D01*
X71555123Y22085677D01*
X71507504Y22180915D01*
X71459885Y22371391D01*
X71459885Y22514248D01*
X71507504Y22704724D01*
X71555123Y22799962D01*
X71650361Y22895200D01*
X71793219Y22942820D01*
X71888457Y22942820D01*
X72031314Y22895200D01*
X72078933Y22847581D01*
X72412266Y22942820D02*
X73031314Y22942820D01*
X72697980Y22561867D01*
X72840838Y22561867D01*
X72936076Y22514248D01*
X72983695Y22466629D01*
X73031314Y22371391D01*
X73031314Y22133296D01*
X72983695Y22038058D01*
X72936076Y21990439D01*
X72840838Y21942820D01*
X72555123Y21942820D01*
X72459885Y21990439D01*
X72412266Y22038058D01*
%TO.C,C5*%
X40377742Y11733534D02*
X40425361Y11685915D01*
X40472980Y11543058D01*
X40472980Y11447820D01*
X40425361Y11304962D01*
X40330123Y11209724D01*
X40234885Y11162105D01*
X40044409Y11114486D01*
X39901552Y11114486D01*
X39711076Y11162105D01*
X39615838Y11209724D01*
X39520600Y11304962D01*
X39472980Y11447820D01*
X39472980Y11543058D01*
X39520600Y11685915D01*
X39568219Y11733534D01*
X39472980Y12638296D02*
X39472980Y12162105D01*
X39949171Y12114486D01*
X39901552Y12162105D01*
X39853933Y12257343D01*
X39853933Y12495439D01*
X39901552Y12590677D01*
X39949171Y12638296D01*
X40044409Y12685915D01*
X40282504Y12685915D01*
X40377742Y12638296D01*
X40425361Y12590677D01*
X40472980Y12495439D01*
X40472980Y12257343D01*
X40425361Y12162105D01*
X40377742Y12114486D01*
%TO.C,C7*%
X90542742Y11733534D02*
X90590361Y11685915D01*
X90637980Y11543058D01*
X90637980Y11447820D01*
X90590361Y11304962D01*
X90495123Y11209724D01*
X90399885Y11162105D01*
X90209409Y11114486D01*
X90066552Y11114486D01*
X89876076Y11162105D01*
X89780838Y11209724D01*
X89685600Y11304962D01*
X89637980Y11447820D01*
X89637980Y11543058D01*
X89685600Y11685915D01*
X89733219Y11733534D01*
X89637980Y12066867D02*
X89637980Y12733534D01*
X90637980Y12304962D01*
%TO.C,U4*%
X8647980Y11033296D02*
X9457504Y11033296D01*
X9552742Y11080915D01*
X9600361Y11128534D01*
X9647980Y11223772D01*
X9647980Y11414248D01*
X9600361Y11509486D01*
X9552742Y11557105D01*
X9457504Y11604724D01*
X8647980Y11604724D01*
X8981314Y12509486D02*
X9647980Y12509486D01*
X8600361Y12271391D02*
X9314647Y12033296D01*
X9314647Y12652343D01*
%TO.C,R4*%
X82238933Y40865820D02*
X81905600Y41342010D01*
X81667504Y40865820D02*
X81667504Y41865820D01*
X82048457Y41865820D01*
X82143695Y41818200D01*
X82191314Y41770581D01*
X82238933Y41675343D01*
X82238933Y41532486D01*
X82191314Y41437248D01*
X82143695Y41389629D01*
X82048457Y41342010D01*
X81667504Y41342010D01*
X83096076Y41532486D02*
X83096076Y40865820D01*
X82857980Y41913439D02*
X82619885Y41199153D01*
X83238933Y41199153D01*
%TO.C,U2*%
X52433695Y48437820D02*
X52433695Y47628296D01*
X52481314Y47533058D01*
X52528933Y47485439D01*
X52624171Y47437820D01*
X52814647Y47437820D01*
X52909885Y47485439D01*
X52957504Y47533058D01*
X53005123Y47628296D01*
X53005123Y48437820D01*
X53433695Y48342581D02*
X53481314Y48390200D01*
X53576552Y48437820D01*
X53814647Y48437820D01*
X53909885Y48390200D01*
X53957504Y48342581D01*
X54005123Y48247343D01*
X54005123Y48152105D01*
X53957504Y48009248D01*
X53386076Y47437820D01*
X54005123Y47437820D01*
%TO.C,R8*%
X40836933Y11213820D02*
X40503600Y11690010D01*
X40265504Y11213820D02*
X40265504Y12213820D01*
X40646457Y12213820D01*
X40741695Y12166200D01*
X40789314Y12118581D01*
X40836933Y12023343D01*
X40836933Y11880486D01*
X40789314Y11785248D01*
X40741695Y11737629D01*
X40646457Y11690010D01*
X40265504Y11690010D01*
X41408361Y11785248D02*
X41313123Y11832867D01*
X41265504Y11880486D01*
X41217885Y11975724D01*
X41217885Y12023343D01*
X41265504Y12118581D01*
X41313123Y12166200D01*
X41408361Y12213820D01*
X41598838Y12213820D01*
X41694076Y12166200D01*
X41741695Y12118581D01*
X41789314Y12023343D01*
X41789314Y11975724D01*
X41741695Y11880486D01*
X41694076Y11832867D01*
X41598838Y11785248D01*
X41408361Y11785248D01*
X41313123Y11737629D01*
X41265504Y11690010D01*
X41217885Y11594772D01*
X41217885Y11404296D01*
X41265504Y11309058D01*
X41313123Y11261439D01*
X41408361Y11213820D01*
X41598838Y11213820D01*
X41694076Y11261439D01*
X41741695Y11309058D01*
X41789314Y11404296D01*
X41789314Y11594772D01*
X41741695Y11690010D01*
X41694076Y11737629D01*
X41598838Y11785248D01*
%TO.C,C6*%
X74672742Y11723534D02*
X74720361Y11675915D01*
X74767980Y11533058D01*
X74767980Y11437820D01*
X74720361Y11294962D01*
X74625123Y11199724D01*
X74529885Y11152105D01*
X74339409Y11104486D01*
X74196552Y11104486D01*
X74006076Y11152105D01*
X73910838Y11199724D01*
X73815600Y11294962D01*
X73767980Y11437820D01*
X73767980Y11533058D01*
X73815600Y11675915D01*
X73863219Y11723534D01*
X73767980Y12580677D02*
X73767980Y12390200D01*
X73815600Y12294962D01*
X73863219Y12247343D01*
X74006076Y12152105D01*
X74196552Y12104486D01*
X74577504Y12104486D01*
X74672742Y12152105D01*
X74720361Y12199724D01*
X74767980Y12294962D01*
X74767980Y12485439D01*
X74720361Y12580677D01*
X74672742Y12628296D01*
X74577504Y12675915D01*
X74339409Y12675915D01*
X74244171Y12628296D01*
X74196552Y12580677D01*
X74148933Y12485439D01*
X74148933Y12294962D01*
X74196552Y12199724D01*
X74244171Y12152105D01*
X74339409Y12104486D01*
%TO.C,C2*%
X53028933Y22038058D02*
X52981314Y21990439D01*
X52838457Y21942820D01*
X52743219Y21942820D01*
X52600361Y21990439D01*
X52505123Y22085677D01*
X52457504Y22180915D01*
X52409885Y22371391D01*
X52409885Y22514248D01*
X52457504Y22704724D01*
X52505123Y22799962D01*
X52600361Y22895200D01*
X52743219Y22942820D01*
X52838457Y22942820D01*
X52981314Y22895200D01*
X53028933Y22847581D01*
X53409885Y22847581D02*
X53457504Y22895200D01*
X53552742Y22942820D01*
X53790838Y22942820D01*
X53886076Y22895200D01*
X53933695Y22847581D01*
X53981314Y22752343D01*
X53981314Y22657105D01*
X53933695Y22514248D01*
X53362266Y21942820D01*
X53981314Y21942820D01*
%TO.C,U8*%
X42937980Y10823296D02*
X43747504Y10823296D01*
X43842742Y10870915D01*
X43890361Y10918534D01*
X43937980Y11013772D01*
X43937980Y11204248D01*
X43890361Y11299486D01*
X43842742Y11347105D01*
X43747504Y11394724D01*
X42937980Y11394724D01*
X43366552Y12013772D02*
X43318933Y11918534D01*
X43271314Y11870915D01*
X43176076Y11823296D01*
X43128457Y11823296D01*
X43033219Y11870915D01*
X42985600Y11918534D01*
X42937980Y12013772D01*
X42937980Y12204248D01*
X42985600Y12299486D01*
X43033219Y12347105D01*
X43128457Y12394724D01*
X43176076Y12394724D01*
X43271314Y12347105D01*
X43318933Y12299486D01*
X43366552Y12204248D01*
X43366552Y12013772D01*
X43414171Y11918534D01*
X43461790Y11870915D01*
X43557028Y11823296D01*
X43747504Y11823296D01*
X43842742Y11870915D01*
X43890361Y11918534D01*
X43937980Y12013772D01*
X43937980Y12204248D01*
X43890361Y12299486D01*
X43842742Y12347105D01*
X43747504Y12394724D01*
X43557028Y12394724D01*
X43461790Y12347105D01*
X43414171Y12299486D01*
X43366552Y12204248D01*
%TO.C,U5*%
X25792980Y10998296D02*
X26602504Y10998296D01*
X26697742Y11045915D01*
X26745361Y11093534D01*
X26792980Y11188772D01*
X26792980Y11379248D01*
X26745361Y11474486D01*
X26697742Y11522105D01*
X26602504Y11569724D01*
X25792980Y11569724D01*
X25792980Y12522105D02*
X25792980Y12045915D01*
X26269171Y11998296D01*
X26221552Y12045915D01*
X26173933Y12141153D01*
X26173933Y12379248D01*
X26221552Y12474486D01*
X26269171Y12522105D01*
X26364409Y12569724D01*
X26602504Y12569724D01*
X26697742Y12522105D01*
X26745361Y12474486D01*
X26792980Y12379248D01*
X26792980Y12141153D01*
X26745361Y12045915D01*
X26697742Y11998296D01*
%TO.C,R1*%
X69347933Y45691820D02*
X69014600Y46168010D01*
X68776504Y45691820D02*
X68776504Y46691820D01*
X69157457Y46691820D01*
X69252695Y46644200D01*
X69300314Y46596581D01*
X69347933Y46501343D01*
X69347933Y46358486D01*
X69300314Y46263248D01*
X69252695Y46215629D01*
X69157457Y46168010D01*
X68776504Y46168010D01*
X70300314Y45691820D02*
X69728885Y45691820D01*
X70014600Y45691820D02*
X70014600Y46691820D01*
X69919361Y46548962D01*
X69824123Y46453724D01*
X69728885Y46406105D01*
%TO.C,C8*%
X58792742Y10958534D02*
X58840361Y10910915D01*
X58887980Y10768058D01*
X58887980Y10672820D01*
X58840361Y10529962D01*
X58745123Y10434724D01*
X58649885Y10387105D01*
X58459409Y10339486D01*
X58316552Y10339486D01*
X58126076Y10387105D01*
X58030838Y10434724D01*
X57935600Y10529962D01*
X57887980Y10672820D01*
X57887980Y10768058D01*
X57935600Y10910915D01*
X57983219Y10958534D01*
X58316552Y11529962D02*
X58268933Y11434724D01*
X58221314Y11387105D01*
X58126076Y11339486D01*
X58078457Y11339486D01*
X57983219Y11387105D01*
X57935600Y11434724D01*
X57887980Y11529962D01*
X57887980Y11720439D01*
X57935600Y11815677D01*
X57983219Y11863296D01*
X58078457Y11910915D01*
X58126076Y11910915D01*
X58221314Y11863296D01*
X58268933Y11815677D01*
X58316552Y11720439D01*
X58316552Y11529962D01*
X58364171Y11434724D01*
X58411790Y11387105D01*
X58507028Y11339486D01*
X58697504Y11339486D01*
X58792742Y11387105D01*
X58840361Y11434724D01*
X58887980Y11529962D01*
X58887980Y11720439D01*
X58840361Y11815677D01*
X58792742Y11863296D01*
X58697504Y11910915D01*
X58507028Y11910915D01*
X58411790Y11863296D01*
X58364171Y11815677D01*
X58316552Y11720439D01*
%TO.C,U7*%
X76577980Y10998296D02*
X77387504Y10998296D01*
X77482742Y11045915D01*
X77530361Y11093534D01*
X77577980Y11188772D01*
X77577980Y11379248D01*
X77530361Y11474486D01*
X77482742Y11522105D01*
X77387504Y11569724D01*
X76577980Y11569724D01*
X76577980Y11950677D02*
X76577980Y12617343D01*
X77577980Y12188772D01*
%TO.C,R3*%
X66045933Y45691820D02*
X65712600Y46168010D01*
X65474504Y45691820D02*
X65474504Y46691820D01*
X65855457Y46691820D01*
X65950695Y46644200D01*
X65998314Y46596581D01*
X66045933Y46501343D01*
X66045933Y46358486D01*
X65998314Y46263248D01*
X65950695Y46215629D01*
X65855457Y46168010D01*
X65474504Y46168010D01*
X66379266Y46691820D02*
X66998314Y46691820D01*
X66664980Y46310867D01*
X66807838Y46310867D01*
X66903076Y46263248D01*
X66950695Y46215629D01*
X66998314Y46120391D01*
X66998314Y45882296D01*
X66950695Y45787058D01*
X66903076Y45739439D01*
X66807838Y45691820D01*
X66522123Y45691820D01*
X66426885Y45739439D01*
X66379266Y45787058D01*
%TO.C,C1*%
X30168933Y22673058D02*
X30121314Y22625439D01*
X29978457Y22577820D01*
X29883219Y22577820D01*
X29740361Y22625439D01*
X29645123Y22720677D01*
X29597504Y22815915D01*
X29549885Y23006391D01*
X29549885Y23149248D01*
X29597504Y23339724D01*
X29645123Y23434962D01*
X29740361Y23530200D01*
X29883219Y23577820D01*
X29978457Y23577820D01*
X30121314Y23530200D01*
X30168933Y23482581D01*
X31121314Y22577820D02*
X30549885Y22577820D01*
X30835600Y22577820D02*
X30835600Y23577820D01*
X30740361Y23434962D01*
X30645123Y23339724D01*
X30549885Y23292105D01*
%TO.C,R6*%
X62885980Y6068534D02*
X62409790Y5735200D01*
X62885980Y5497105D02*
X61885980Y5497105D01*
X61885980Y5878058D01*
X61933600Y5973296D01*
X61981219Y6020915D01*
X62076457Y6068534D01*
X62219314Y6068534D01*
X62314552Y6020915D01*
X62362171Y5973296D01*
X62409790Y5878058D01*
X62409790Y5497105D01*
X61885980Y6925677D02*
X61885980Y6735200D01*
X61933600Y6639962D01*
X61981219Y6592343D01*
X62124076Y6497105D01*
X62314552Y6449486D01*
X62695504Y6449486D01*
X62790742Y6497105D01*
X62838361Y6544724D01*
X62885980Y6639962D01*
X62885980Y6830439D01*
X62838361Y6925677D01*
X62790742Y6973296D01*
X62695504Y7020915D01*
X62457409Y7020915D01*
X62362171Y6973296D01*
X62314552Y6925677D01*
X62266933Y6830439D01*
X62266933Y6639962D01*
X62314552Y6544724D01*
X62362171Y6497105D01*
X62457409Y6449486D01*
%TO.C,R2*%
X82238933Y42389820D02*
X81905600Y42866010D01*
X81667504Y42389820D02*
X81667504Y43389820D01*
X82048457Y43389820D01*
X82143695Y43342200D01*
X82191314Y43294581D01*
X82238933Y43199343D01*
X82238933Y43056486D01*
X82191314Y42961248D01*
X82143695Y42913629D01*
X82048457Y42866010D01*
X81667504Y42866010D01*
X82619885Y43294581D02*
X82667504Y43342200D01*
X82762742Y43389820D01*
X83000838Y43389820D01*
X83096076Y43342200D01*
X83143695Y43294581D01*
X83191314Y43199343D01*
X83191314Y43104105D01*
X83143695Y42961248D01*
X82572266Y42389820D01*
X83191314Y42389820D01*
%TO.C,C4*%
X23232742Y11788534D02*
X23280361Y11740915D01*
X23327980Y11598058D01*
X23327980Y11502820D01*
X23280361Y11359962D01*
X23185123Y11264724D01*
X23089885Y11217105D01*
X22899409Y11169486D01*
X22756552Y11169486D01*
X22566076Y11217105D01*
X22470838Y11264724D01*
X22375600Y11359962D01*
X22327980Y11502820D01*
X22327980Y11598058D01*
X22375600Y11740915D01*
X22423219Y11788534D01*
X22661314Y12645677D02*
X23327980Y12645677D01*
X22280361Y12407581D02*
X22994647Y12169486D01*
X22994647Y12788534D01*
%TO.C,U6*%
X60717980Y10998296D02*
X61527504Y10998296D01*
X61622742Y11045915D01*
X61670361Y11093534D01*
X61717980Y11188772D01*
X61717980Y11379248D01*
X61670361Y11474486D01*
X61622742Y11522105D01*
X61527504Y11569724D01*
X60717980Y11569724D01*
X60717980Y12474486D02*
X60717980Y12284010D01*
X60765600Y12188772D01*
X60813219Y12141153D01*
X60956076Y12045915D01*
X61146552Y11998296D01*
X61527504Y11998296D01*
X61622742Y12045915D01*
X61670361Y12093534D01*
X61717980Y12188772D01*
X61717980Y12379248D01*
X61670361Y12474486D01*
X61622742Y12522105D01*
X61527504Y12569724D01*
X61289409Y12569724D01*
X61194171Y12522105D01*
X61146552Y12474486D01*
X61098933Y12379248D01*
X61098933Y12188772D01*
X61146552Y12093534D01*
X61194171Y12045915D01*
X61289409Y11998296D01*
D14*
%TO.C,J1*%
X3073400Y422600D02*
X3073400Y3082600D01*
X1803400Y422600D02*
X473400Y422600D01*
X99653400Y422600D02*
X99653400Y3082600D01*
X473400Y422600D02*
X473400Y1752600D01*
X3073400Y422600D02*
X99653400Y422600D01*
X3073400Y3082600D02*
X99653400Y3082600D01*
%TO.C,R5*%
X63147858Y48096700D02*
X62673342Y48096700D01*
X63147858Y47051700D02*
X62673342Y47051700D01*
%TO.C,U3*%
X66403600Y25387300D02*
X78087600Y25387300D01*
X66403600Y25804260D02*
X66403600Y25387300D01*
X78087600Y46393100D02*
X66403600Y46393100D01*
X66403600Y46393100D02*
X66403600Y45976140D01*
X78087600Y25387300D02*
X78087600Y25804260D01*
X78087600Y45976140D02*
X78087600Y46393100D01*
%TO.C,U1*%
X29335600Y46925200D02*
X22210600Y46925200D01*
X21210600Y45925200D02*
X21210600Y26125200D01*
X22210600Y46925200D02*
X21210600Y45925200D01*
X39460600Y46925200D02*
X31335600Y46925200D01*
X21210600Y26125200D02*
X39460600Y26125200D01*
X39460600Y26125200D02*
X39460600Y46925200D01*
%TO.C,R7*%
X65910100Y5997942D02*
X65910100Y6472458D01*
X64865100Y5997942D02*
X64865100Y6472458D01*
%TO.C,C3*%
X72386180Y23315200D02*
X72105020Y23315200D01*
X72386180Y24335200D02*
X72105020Y24335200D01*
%TO.C,C5*%
X38080600Y12040780D02*
X38080600Y11759620D01*
X39100600Y12040780D02*
X39100600Y11759620D01*
%TO.C,C7*%
X88245600Y12040780D02*
X88245600Y11759620D01*
X89265600Y12040780D02*
X89265600Y11759620D01*
%TO.C,U4*%
X20155600Y11795200D02*
X20155600Y9845200D01*
X10035600Y11795200D02*
X10035600Y13745200D01*
X20155600Y11795200D02*
X20155600Y13745200D01*
X10035600Y11795200D02*
X10035600Y8345200D01*
%TO.C,R4*%
X82642858Y43270700D02*
X82168342Y43270700D01*
X82642858Y42225700D02*
X82168342Y42225700D01*
%TO.C,U2*%
X47353600Y25387300D02*
X59037600Y25387300D01*
X47353600Y46393100D02*
X47353600Y45976140D01*
X59037600Y46393100D02*
X47353600Y46393100D01*
X47353600Y25804260D02*
X47353600Y25387300D01*
X59037600Y25387300D02*
X59037600Y25804260D01*
X59037600Y45976140D02*
X59037600Y46393100D01*
%TO.C,R8*%
X40766342Y9713700D02*
X41240858Y9713700D01*
X40766342Y10758700D02*
X41240858Y10758700D01*
%TO.C,C6*%
X72375600Y12030780D02*
X72375600Y11749620D01*
X73395600Y12030780D02*
X73395600Y11749620D01*
%TO.C,C2*%
X53336180Y24335200D02*
X53055020Y24335200D01*
X53336180Y23315200D02*
X53055020Y23315200D01*
%TO.C,U8*%
X44325600Y11585200D02*
X44325600Y13535200D01*
X54445600Y11585200D02*
X54445600Y9635200D01*
X44325600Y11585200D02*
X44325600Y8135200D01*
X54445600Y11585200D02*
X54445600Y13535200D01*
%TO.C,U5*%
X27180600Y11760200D02*
X27180600Y8310200D01*
X37300600Y11760200D02*
X37300600Y13710200D01*
X37300600Y11760200D02*
X37300600Y9810200D01*
X27180600Y11760200D02*
X27180600Y13710200D01*
%TO.C,R1*%
X69751858Y47051700D02*
X69277342Y47051700D01*
X69751858Y48096700D02*
X69277342Y48096700D01*
%TO.C,C8*%
X57515600Y11265780D02*
X57515600Y10984620D01*
X56495600Y11265780D02*
X56495600Y10984620D01*
%TO.C,U7*%
X77970600Y11760200D02*
X77970600Y13710200D01*
X86840600Y11760200D02*
X86840600Y13710200D01*
X77970600Y11760200D02*
X77970600Y8310200D01*
X86840600Y11760200D02*
X86840600Y9810200D01*
%TO.C,R3*%
X66449858Y48096700D02*
X65975342Y48096700D01*
X66449858Y47051700D02*
X65975342Y47051700D01*
%TO.C,C1*%
X30476180Y24970200D02*
X30195020Y24970200D01*
X30476180Y23950200D02*
X30195020Y23950200D01*
%TO.C,R6*%
X63341100Y5997942D02*
X63341100Y6472458D01*
X64386100Y5997942D02*
X64386100Y6472458D01*
%TO.C,R2*%
X82642858Y43749700D02*
X82168342Y43749700D01*
X82642858Y44794700D02*
X82168342Y44794700D01*
%TO.C,C4*%
X20935600Y12095780D02*
X20935600Y11814620D01*
X21955600Y12095780D02*
X21955600Y11814620D01*
%TO.C,U6*%
X62105600Y11760200D02*
X62105600Y8310200D01*
X72225600Y11760200D02*
X72225600Y9810200D01*
X72225600Y11760200D02*
X72225600Y13710200D01*
X62105600Y11760200D02*
X62105600Y13710200D01*
%TD*%
D15*
%TO.C,*%
X5029200Y33121600D03*
%TD*%
M02*
