%TF.GenerationSoftware,KiCad,Pcbnew,6.0.6*%
%TF.CreationDate,2022-07-25T00:17:01-07:00*%
%TF.ProjectId,backplane16,6261636b-706c-4616-9e65-31362e6b6963,rev?*%
%TF.SameCoordinates,PX55d4a80PY8583b00*%
%TF.FileFunction,Profile,NP*%
%FSLAX46Y46*%
G04 Gerber Fmt 4.6, Leading zero omitted, Abs format (unit mm)*
G04 Created by KiCad (PCBNEW 6.0.6) date 2022-07-25 00:17:01*
%MOMM*%
%LPD*%
G01*
G04 APERTURE LIST*
%TA.AperFunction,Profile*%
%ADD10C,0.100000*%
%TD*%
G04 APERTURE END LIST*
D10*
X100000000Y0D02*
X0Y0D01*
X0Y100000000D02*
X100000000Y100000000D01*
X100000000Y0D02*
X100000000Y100000000D01*
X0Y0D02*
X0Y100000000D01*
M02*
