(kicad_pcb (version 20211014) (generator pcbnew)

  (general
    (thickness 1.6)
  )

  (paper "USLetter")
  (layers
    (0 "F.Cu" signal)
    (31 "B.Cu" signal)
    (32 "B.Adhes" user "B.Adhesive")
    (33 "F.Adhes" user "F.Adhesive")
    (34 "B.Paste" user)
    (35 "F.Paste" user)
    (36 "B.SilkS" user "B.Silkscreen")
    (37 "F.SilkS" user "F.Silkscreen")
    (38 "B.Mask" user)
    (39 "F.Mask" user)
    (40 "Dwgs.User" user "User.Drawings")
    (41 "Cmts.User" user "User.Comments")
    (42 "Eco1.User" user "User.Eco1")
    (43 "Eco2.User" user "User.Eco2")
    (44 "Edge.Cuts" user)
    (45 "Margin" user)
    (46 "B.CrtYd" user "B.Courtyard")
    (47 "F.CrtYd" user "F.Courtyard")
    (48 "B.Fab" user)
    (49 "F.Fab" user)
  )

  (setup
    (pad_to_mask_clearance 0.2)
    (aux_axis_origin 97.9344 131.1402)
    (pcbplotparams
      (layerselection 0x00010f0_80000001)
      (disableapertmacros false)
      (usegerberextensions false)
      (usegerberattributes true)
      (usegerberadvancedattributes true)
      (creategerberjobfile true)
      (svguseinch false)
      (svgprecision 6)
      (excludeedgelayer true)
      (plotframeref false)
      (viasonmask false)
      (mode 1)
      (useauxorigin false)
      (hpglpennumber 1)
      (hpglpenspeed 20)
      (hpglpendiameter 15.000000)
      (dxfpolygonmode true)
      (dxfimperialunits true)
      (dxfusepcbnewfont true)
      (psnegative false)
      (psa4output false)
      (plotreference true)
      (plotvalue true)
      (plotinvisibletext false)
      (sketchpadsonfab false)
      (subtractmaskfromsilk false)
      (outputformat 1)
      (mirror false)
      (drillshape 0)
      (scaleselection 1)
      (outputdirectory "/home/spencer/Documents/KiCad/2016/RC2014/Dimension Template/")
    )
  )

  (net 0 "")
  (net 1 "~{WR}")
  (net 2 "~{WAIT}")
  (net 3 "~{RFSH}")
  (net 4 "~{RESET}")
  (net 5 "~{RD}")
  (net 6 "~{PAGE}")
  (net 7 "~{NMI}")
  (net 8 "~{MREQ}")
  (net 9 "~{M1}")
  (net 10 "~{IORQ}")
  (net 11 "~{INT}")
  (net 12 "~{HALT}")
  (net 13 "~{BUSRQ}")
  (net 14 "~{BUSACK}")
  (net 15 "USR3")
  (net 16 "USR2")
  (net 17 "USR1")
  (net 18 "TX")
  (net 19 "RX")
  (net 20 "GND")
  (net 21 "CLK2")
  (net 22 "CLK")
  (net 23 "A15")
  (net 24 "A14")
  (net 25 "A13")
  (net 26 "A12")
  (net 27 "A11")
  (net 28 "A10")
  (net 29 "A9")
  (net 30 "A8")
  (net 31 "A7")
  (net 32 "A6")
  (net 33 "A5")
  (net 34 "A4")
  (net 35 "A3")
  (net 36 "A2")
  (net 37 "A1")
  (net 38 "A0")
  (net 39 "5V")
  (net 40 "D0")
  (net 41 "D1")
  (net 42 "D2")
  (net 43 "D3")
  (net 44 "D4")
  (net 45 "D5")
  (net 46 "D6")
  (net 47 "D7")
  (net 48 "D8")
  (net 49 "D9")
  (net 50 "D10")
  (net 51 "D11")
  (net 52 "D12")
  (net 53 "D13")
  (net 54 "D14")
  (net 55 "D15")
  (net 56 "TX2")
  (net 57 "RX2")
  (net 58 "USR5")
  (net 59 "USR6")
  (net 60 "USR7")

  (footprint "Mounting_Holes:MountingHole_3.2mm_M3" locked (layer "F.Cu")
    (tedit 583F5ADB) (tstamp 00000000-0000-0000-0000-0000574b179b)
    (at 102.9636 98.0186)
    (descr "Mounting Hole 3.2mm, no annular, M3")
    (tags "mounting hole 3.2mm no annular m3")
    (attr through_hole)
    (fp_text reference "" (at 26.6446 -55.0545) (layer "F.SilkS") hide
      (effects (font (size 1 1) (thickness 0.15)))
      (tstamp 688e05cb-336f-4dc3-b028-a442da1305cd)
    )
    (fp_text value "" (at 2.3368 -73.0631 90) (layer "F.Fab") hide
      (effects (font (size 1 1) (thickness 0.15)))
      (tstamp 7cf311a0-cecf-40fe-9537-e29d05d3ddb4)
    )
    (fp_circle (center 0 0) (end 3.2 0) (layer "Cmts.User") (width 0.15) (fill none) (tstamp 1aca1028-a443-4714-ad12-48e939acad37))
    (fp_circle (center 0 0) (end 3.45 0) (layer "F.CrtYd") (width 0.05) (fill none) (tstamp c67f669c-37aa-4dac-880c-3377934e5168))
    (pad "" np_thru_hole circle locked (at 0 0) (size 3.2 3.2) (drill 3.2) (layers *.Cu *.Mask "F.SilkS") (tstamp c3ee68fc-a5ef-43a5-9799-2c889911cc0d))
  )

  (footprint "Connector_PinHeader_2.54mm:PinHeader_1x16_P2.54mm_Horizontal" locked (layer "F.Cu")
    (tedit 59FED5CB) (tstamp 3e711e43-b386-42d1-8ccb-bf52d89c87c1)
    (at 137.8378 129.3876 -90)
    (descr "Through hole angled pin header, 1x16, 2.54mm pitch, 6mm pin length, single row")
    (tags "Through hole angled pin header THT 1x16 2.54mm single row")
    (property "MPN" "TSW-116-08-L-S-RA")
    (property "Manufacturer" "Samtec")
    (property "Sheetfile" "rc2014-template16.kicad_sch")
    (property "Sheetname" "")
    (path "/dbf829dc-f1a3-4b82-8606-803083861c27")
    (attr through_hole)
    (fp_text reference "PC1" (at 4.385 -2.27 90) (layer "F.SilkS")
      (effects (font (size 1 1) (thickness 0.15)))
      (tstamp d99b82a7-17ed-45b0-8f6a-f0855d865d52)
    )
    (fp_text value "Conn_01x16_Male" (at 4.385 40.37 90) (layer "F.Fab")
      (effects (font (size 1 1) (thickness 0.15)))
      (tstamp 2e236aea-7aaf-43b4-b362-5b60deb13ba7)
    )
    (fp_text user "${REFERENCE}" (at 2.77 19.05) (layer "F.Fab")
      (effects (font (size 1 1) (thickness 0.15)))
      (tstamp 76b5fbe3-a364-488e-981e-df270e8afb97)
    )
    (fp_line (start 1.11 -0.38) (end 1.44 -0.38) (layer "F.SilkS") (width 0.12) (tstamp 023a8edc-11df-4342-acd7-b55e8a9b8aea))
    (fp_line (start 4.1 37.72) (end 10.1 37.72) (layer "F.SilkS") (width 0.12) (tstamp 0620875c-55d6-4afb-bf2e-d37a93f6b0f4))
    (fp_line (start 4.1 27.56) (end 10.1 27.56) (layer "F.SilkS") (width 0.12) (tstamp 0c960dc6-7593-47a4-b765-b2b479291d40))
    (fp_line (start 4.1 14.86) (end 10.1 14.86) (layer "F.SilkS") (width 0.12) (tstamp 0e1732b5-49af-4583-b93f-8ac36c4ce421))
    (fp_line (start 10.1 7.24) (end 10.1 8) (layer "F.SilkS") (width 0.12) (tstamp 0ead0c99-f7d3-4761-ac7d-68a065e3b3d5))
    (fp_line (start 10.1 38.48) (end 4.1 38.48) (layer "F.SilkS") (width 0.12) (tstamp 12221a82-9279-47ce-af22-bc71a16269cd))
    (fp_line (start 4.1 4.7) (end 10.1 4.7) (layer "F.SilkS") (width 0.12) (tstamp 12d8a9cf-03e8-4ce2-966c-5cce89a1961e))
    (fp_line (start 1.44 39.43) (end 4.1 39.43) (layer "F.SilkS") (width 0.12) (tstamp 138d94c7-01e5-4f3d-a198-c8dcb248a33b))
    (fp_line (start 4.1 -0.38) (end 10.1 -0.38) (layer "F.SilkS") (width 0.12) (tstamp 165af6cb-9d00-432e-91a6-e4eb5948d190))
    (fp_line (start 4.1 19.94) (end 10.1 19.94) (layer "F.SilkS") (width 0.12) (tstamp 165ecf71-6799-453a-970a-f3f60577e3ff))
    (fp_line (start 4.1 17.4) (end 10.1 17.4) (layer "F.SilkS") (width 0.12) (tstamp 16f868ca-7b8b-4965-976c-421f23a336f5))
    (fp_line (start 10.1 -0.38) (end 10.1 0.38) (layer "F.SilkS") (width 0.12) (tstamp 17d92fa8-1684-4293-9d9d-5199aa6c5f84))
    (fp_line (start 1.042929 15.62) (end 1.44 15.62) (layer "F.SilkS") (width 0.12) (tstamp 18db0370-15ba-418b-a5d3-019e0cfcd759))
    (fp_line (start 4.1 12.32) (end 10.1 12.32) (layer "F.SilkS") (width 0.12) (tstamp 1a800f8a-9c25-4739-9dc8-f12a150f106e))
    (fp_line (start 4.1 22.48) (end 10.1 22.48) (layer "F.SilkS") (width 0.12) (tstamp 1efd9c0f-e784-4db0-844c-e7e6860946dd))
    (fp_line (start 1.042929 8) (end 1.44 8) (layer "F.SilkS") (width 0.12) (tstamp 1efdb554-96db-4b61-95b6-03a31ab53ff3))
    (fp_line (start 4.1 7.24) (end 10.1 7.24) (layer "F.SilkS") (width 0.12) (tstamp 2201653d-0bd6-4897-90cd-ab39740bca8e))
    (fp_line (start 1.44 36.83) (end 4.1 36.83) (layer "F.SilkS") (width 0.12) (tstamp 24184196-240b-4098-94fb-26d2bf5acc64))
    (fp_line (start 1.44 24.13) (end 4.1 24.13) (layer "F.SilkS") (width 0.12) (tstamp 24d122a6-7bb7-4655-8162-70f232bf05c7))
    (fp_line (start 1.042929 35.94) (end 1.44 35.94) (layer "F.SilkS") (width 0.12) (tstamp 2508d751-2b60-42dd-b312-8bcc15c7b9c6))
    (fp_line (start 1.44 21.59) (end 4.1 21.59) (layer "F.SilkS") (width 0.12) (tstamp 253b01dd-4cd7-4995-92ea-d19b0bef247a))
    (fp_line (start 4.1 -0.08) (end 10.1 -0.08) (layer "F.SilkS") (width 0.12) (tstamp 27a0c7e6-7874-4ee2-aa31-f5fc05746eab))
    (fp_line (start 4.1 -0.2) (end 10.1 -0.2) (layer "F.SilkS") (width 0.12) (tstamp 2b768703-eed1-4020-af0b-875e3d8b81f8))
    (fp_line (start 1.042929 13.08) (end 1.44 13.08) (layer "F.SilkS") (width 0.12) (tstamp 2dcb704c-1c7a-4fad-8b7e-fbdb93349b56))
    (fp_line (start -1.27 0) (end -1.27 -1.27) (layer "F.SilkS") (width 0.12) (tstamp 308c5a0d-e898-4b09-91aa-d241ba959f47))
    (fp_line (start 1.44 29.21) (end 4.1 29.21) (layer "F.SilkS") (width 0.12) (tstamp 317c6852-da48-4612-a070-a9feb0a098f8))
    (fp_line (start 10.1 25.02) (end 10.1 25.78) (layer "F.SilkS") (width 0.12) (tstamp 39945c94-e90a-46b5-b3df-28feb395f1bf))
    (fp_line (start 10.1 22.48) (end 10.1 23.24) (layer "F.SilkS") (width 0.12) (tstamp 414f858a-9c8a-497b-ad9e-bb4e524bde65))
    (fp_line (start 1.042929 17.4) (end 1.44 17.4) (layer "F.SilkS") (width 0.12) (tstamp 416da4a3-b084-4809-ba41-eb834920add7))
    (fp_line (start 10.1 10.54) (end 4.1 10.54) (layer "F.SilkS") (width 0.12) (tstamp 43930174-c6de-4d24-ae04-66d270ce278d))
    (fp_line (start 10.1 27.56) (end 10.1 28.32) (layer "F.SilkS") (width 0.12) (tstamp 43980ec8-d897-4bd1-89f4-df43e8baa92e))
    (fp_line (start 10.1 30.1) (end 10.1 30.86) (layer "F.SilkS") (width 0.12) (tstamp 47e3baee-f107-41f4-bc24-8c080df7c613))
    (fp_line (start 10.1 20.7) (end 4.1 20.7) (layer "F.SilkS") (width 0.12) (tstamp 4bca6266-4552-4567-86ed-10701a26133f))
    (fp_line (start 1.042929 35.18) (end 1.44 35.18) (layer "F.SilkS") (width 0.12) (tstamp 4d049334-6ea9-4c05-8c25-3cd27b6cfc48))
    (fp_line (start 10.1 9.78) (end 10.1 10.54) (layer "F.SilkS") (width 0.12) (tstamp 541a7d47-2f60-4568-ac45-97a4433c36a8))
    (fp_line (start 10.1 35.18) (end 10.1 35.94) (layer "F.SilkS") (width 0.12) (tstamp 578a0471-1daa-493e-8b45-dcb356ae8a07))
    (fp_line (start 4.1 -0.32) (end 10.1 -0.32) (layer "F.SilkS") (width 0.12) (tstamp 5b99f92b-efa8-4361-8964-80a17e8a8ce7))
    (fp_line (start 1.042929 5.46) (end 1.44 5.46) (layer "F.SilkS") (width 0.12) (tstamp 5bd97c22-6a90-4160-8d21-d01a4a6da9da))
    (fp_line (start 4.1 2.16) (end 10.1 2.16) (layer "F.SilkS") (width 0.12) (tstamp 5d92fe77-0720-4a44-8adf-f345bb6d7086))
    (fp_line (start 1.042929 9.78) (end 1.44 9.78) (layer "F.SilkS") (width 0.12) (tstamp 5e567fab-9731-4d8f-96a5-20bf70fcc525))
    (fp_line (start 1.042929 30.86) (end 1.44 30.86) (layer "F.SilkS") (width 0.12) (tstamp 67233527-3700-4e20-aa3f-382b0f9db8e2))
    (fp_line (start 1.44 11.43) (end 4.1 11.43) (layer "F.SilkS") (width 0.12) (tstamp 69ca3b98-8a0b-4a62-8586-26709f83e210))
    (fp_line (start 1.44 8.89) (end 4.1 8.89) (layer "F.SilkS") (width 0.12) (tstamp 6eb7f511-80cb-46cd-9ca3-7656caf86fc5))
    (fp_line (start 1.042929 19.94) (end 1.44 19.94) (layer "F.SilkS") (width 0.12) (tstamp 6eefa858-8ea3-40e3-964e-f40e1af5bcb5))
    (fp_line (start 4.1 32.64) (end 10.1 32.64) (layer "F.SilkS") (width 0.12) (tstamp 70d6fac9-a6e0-4e55-98a8-cfd27f76088f))
    (fp_line (start 1.042929 18.16) (end 1.44 18.16) (layer "F.SilkS") (width 0.12) (tstamp 72b7ff33-964b-42ce-9696-495de7cdabaf))
    (fp_line (start 10.1 18.16) (end 4.1 18.16) (layer "F.SilkS") (width 0.12) (tstamp 733369c7-660f-4b00-ba1c-9c9cbe84e8e5))
    (fp_line (start 4.1 9.78) (end 10.1 9.78) (layer "F.SilkS") (width 0.12) (tstamp 761a7c31-2b3f-49eb-96a4-ffa9bb72e47a))
    (fp_line (start 4.1 25.02) (end 10.1 25.02) (layer "F.SilkS") (width 0.12) (tstamp 76517291-9e59-405b-bfdc-ab07b43c7c81))
    (fp_line (start 1.042929 28.32) (end 1.44 28.32) (layer "F.SilkS") (width 0.12) (tstamp 7788eff3-c9c9-44a5-b183-ae99499535cb))
    (fp_line (start 1.042929 32.64) (end 1.44 32.64) (layer "F.SilkS") (width 0.12) (tstamp 79220d63-d6c8-447e-8723-9948c47f3fe4))
    (fp_line (start 1.44 26.67) (end 4.1 26.67) (layer "F.SilkS") (width 0.12) (tstamp 7bb34749-8b7f-4ab9-a5c1-f640390b88ac))
    (fp_line (start 1.44 1.27) (end 4.1 1.27) (layer "F.SilkS") (width 0.12) (tstamp 7c6c9451-63c1-443a-98bb-6d9ec90c46ee))
    (fp_line (start 10.1 23.24) (end 4.1 23.24) (layer "F.SilkS") (width 0.12) (tstamp 7fd23ec3-6e8f-4138-8cb7-e6963dbf8429))
    (fp_line (start 10.1 8) (end 4.1 8) (layer "F.SilkS") (width 0.12) (tstamp 811642b7-1ee3-49c4-abb9-a3a8d1631a91))
    (fp_line (start 1.44 3.81) (end 4.1 3.81) (layer "F.SilkS") (width 0.12) (tstamp 85c7b56a-6945-4df1-ac87-7022b7091ad7))
    (fp_line (start 1.042929 30.1) (end 1.44 30.1) (layer "F.SilkS") (width 0.12) (tstamp 8a34e95a-f57f-4924-81f2-bc9ba1ec4f81))
    (fp_line (start 1.042929 27.56) (end 1.44 27.56) (layer "F.SilkS") (width 0.12) (tstamp 8b676ddc-4ba1-4ed2-a906-038407f1c43f))
    (fp_line (start 1.44 31.75) (end 4.1 31.75) (layer "F.SilkS") (width 0.12) (tstamp 8c758990-3a7b-40cb-bd5d-af851de6497e))
    (fp_line (start 1.44 16.51) (end 4.1 16.51) (layer "F.SilkS") (width 0.12) (tstamp 8c96a616-ad32-4677-8c09-cf5efdeeecdf))
    (fp_line (start 1.042929 4.7) (end 1.44 4.7) (layer "F.SilkS") (width 0.12) (tstamp 8f156a7e-f1ff-4707-9add-38b5cc0b0d9f))
    (fp_line (start 4.1 0.16) (end 10.1 0.16) (layer "F.SilkS") (width 0.12) (tstamp 8f3fbbe1-0a41-4f53-88fc-debec657e02c))
    (fp_line (start 1.042929 37.72) (end 1.44 37.72) (layer "F.SilkS") (width 0.12) (tstamp 928006fd-8d64-488f-9872-899adc7ea7ad))
    (fp_line (start 1.042929 2.16) (end 1.44 2.16) (layer "F.SilkS") (width 0.12) (tstamp 9342d17b-f4c8-460a-aad9-4c9758356c2b))
    (fp_line (start 1.44 13.97) (end 4.1 13.97) (layer "F.SilkS") (width 0.12) (tstamp 99396c2d-da4a-4acd-8dd4-cd8207aa85e1))
    (fp_line (start 10.1 33.4) (end 4.1 33.4) (layer "F.SilkS") (width 0.12) (tstamp 9dd042fc-4216-433c-9c20-222bf9da5a6b))
    (fp_line (start 10.1 37.72) (end 10.1 38.48) (layer "F.SilkS") (width 0.12) (tstamp a4bfe45d-250a-4c85-a254-e047a17ab930))
    (fp_line (start 10.1 5.46) (end 4.1 5.46) (layer "F.SilkS") (width 0.12) (tstamp a6986e5b-f8d1-4f96-afbe-ac42220b3d0c))
    (fp_line (start 10.1 35.94) (end 4.1 35.94) (layer "F.SilkS") (width 0.12) (tstamp a788a914-94e4-48bc-99e2-c5dad65d5d18))
    (fp_line (start 10.1 17.4) (end 10.1 18.16) (layer "F.SilkS") (width 0.12) (tstamp addb2da0-3f94-46d4-bfbe-1fa07eaf1acb))
    (fp_line (start 10.1 25.78) (end 4.1 25.78) (layer "F.SilkS") (width 0.12) (tstamp af05a83a-04a8-4def-9aeb-8a035e837622))
    (fp_line (start 10.1 0.38) (end 4.1 0.38) (layer "F.SilkS") (width 0.12) (tstamp afde0826-d243-4108-b2b0-ac87c1b3fdf4))
    (fp_line (start 10.1 28.32) (end 4.1 28.32) (layer "F.SilkS") (width 0.12) (tstamp b3528f82-258e-49de-95d0-4d360d56592a))
    (fp_line (start 4.1 0.28) (end 10.1 0.28) (layer "F.SilkS") (width 0.12) (tstamp b47683f9-48ea-4030-8089-f2c444106eaf))
    (fp_line (start 10.1 30.86) (end 4.1 30.86) (layer "F.SilkS") (width 0.12) (tstamp b547eaed-52f4-4b63-ab68-030c3411e696))
    (fp_line (start 1.042929 10.54) (end 1.44 10.54) (layer "F.SilkS") (width 0.12) (tstamp bb1b9809-d922-4b34-a590-7425e983f11c))
    (fp_line (start 4.1 -1.33) (end 1.44 -1.33) (layer "F.SilkS") (width 0.12) (tstamp bb2b95ce-f206-454a-8f91-1475613fc670))
    (fp_line (start 10.1 19.94) (end 10.1 20.7) (layer "F.SilkS") (width 0.12) (tstamp bc1f8711-9bfd-492e-8f3e-afca435061ca))
    (fp_line (start 1.042929 22.48) (end 1.44 22.48) (layer "F.SilkS") (width 0.12) (tstamp bc4f9449-0b5b-4b3b-8c1d-a722d1c8341c))
    (fp_line (start 10.1 14.86) (end 10.1 15.62) (layer "F.SilkS") (width 0.12) (tstamp bdb14140-2316-4b71-9f73-ce3d1bef9302))
    (fp_line (start 1.042929 38.48) (end 1.44 38.48) (layer "F.SilkS") (width 0.12) (tstamp be1de9b2-b85f-42e7-8df9-42103f693fc2))
    (fp_line (start 1.042929 23.24) (end 1.44 23.24) (layer "F.SilkS") (width 0.12) (tstamp c3a16d09-c785-4d54-af83-f8b1891f4212))
    (fp_line (start 4.1 0.04) (end 10.1 0.04) (layer "F.SilkS") (width 0.12) (tstamp c492d1fa-fadc-4535-9ca1-06845ff15cf2))
    (fp_line (start 10.1 4.7) (end 10.1 5.46) (layer "F.SilkS") (width 0.12) (tstamp c5747b43-a17b-4ca4-871d-4a752b0349ef))
    (fp_line (start 1.042929 14.86) (end 1.44 14.86) (layer "F.SilkS") (width 0.12) (tstamp c6906fe6-b500-4cc0-b2a4-812fc9f70a95))
    (fp_line (start 10.1 15.62) (end 4.1 15.62) (layer "F.SilkS") (width 0.12) (tstamp ca6f99f4-f37f-45a2-b291-0f979fc79236))
    (fp_line (start 4.1 30.1) (end 10.1 30.1) (layer "F.SilkS") (width 0.12) (tstamp cab751cf-eb10-424e-8949-5e81bf4361dc))
    (fp_line (start 1.44 34.29) (end 4.1 34.29) (layer "F.SilkS") (width 0.12) (tstamp cbb73c7b-23cc-4b20-9840-b46824cb28da))
    (fp_line (start 1.44 -1.33) (end 1.44 39.43) (layer "F.SilkS") (width 0.12) (tstamp cfc46231-1b68-489d-8cd3-4174c5178bec))
    (fp_line (start 4.1 35.18) (end 10.1 35.18) (layer "F.SilkS") (width 0.12) (tstamp d00f62e2-cfb9-4a44-8c70-5bfa475c5b5b))
    (fp_line (start 1.44 6.35) (end 4.1 6.35) (layer "F.SilkS") (width 0.12) (tstamp d0af3007-8bce-4d94-b94f-e535f81b1bb1))
    (fp_line (start 10.1 32.64) (end 10.1 33.4) (layer "F.SilkS") (width 0.12) (tstamp d1cacb68-db8d-4f3e-a480-34bcc28a5350))
    (fp_line (start 10.1 2.92) (end 4.1 2.92) (layer "F.SilkS") (width 0.12) (tstamp d3cbdc2d-55db-4426-99cb-f92e89ffaea2))
    (fp_line (start 1.042929 2.92) (end 1.44 2.92) (layer "F.SilkS") (width 0.12) (tstamp d88dcd5a-a38d-4327-a34c-76c152f5865c))
    (fp_line (start 10.1 12.32) (end 10.1 13.08) (layer "F.SilkS") (width 0.12) (tstamp dc15e661-6caf-4a1d-95c9-78d4ce374cd6))
    (fp_line (start 1.11 0.38) (end 1.44 0.38) (layer "F.SilkS") (width 0.12) (tstamp dd3f19d4-85a2-4a43-98f2-32fb5cf87f0e))
    (fp_line (start 1.042929 12.32) (end 1.44 12.32) (layer "F.SilkS") (width 0.12) (tstamp df1292cb-f451-4f98-9a9e-1ac5b0bcf19d))
    (fp_line (start 10.1 2.16) (end 10.1 2.92) (layer "F.SilkS") (width 0.12) (tstamp e579af7c-6baa-4872-9593-8781149d1b8c))
    (fp_line (start 1.042929 7.24) (end 1.44 7.24) (layer "F.SilkS") (width 0.12) (tstamp e7125b65-4d83-447f-8b92-e432f41cc20d))
    (fp_line (start 1.44 19.05) (end 4.1 19.05) (layer "F.SilkS") (width 0.12) (tstamp e833038a-ddd9-4d68-8678-0796697eeab4))
    (fp_line (start 4.1 39.43) (end 4.1 -1.33) (layer "F.SilkS") (width 0.12) (tstamp eb529479-59a0-4030-932d-948927c8ea43))
    (fp_line (start 1.042929 25.78) (end 1.44 25.78) (layer "F.SilkS") (width 0.12) (tstamp ecdeb27c-eaac-4efc-9483-eeb4e76f78cb))
    (fp_line (start 1.042929 25.02) (end 1.44 25.02) (layer "F.SilkS") (width 0.12) (tstamp f1a1013e-a015-42d3-b0f7-584e1f6d0b94))
    (fp_line (start 1.042929 33.4) (end 1.44 33.4) (layer "F.SilkS") (width 0.12) (tstamp f2d884f0-e886-4497-b71e-0b19b75bf9f3))
    (fp_line (start 1.042929 20.7) (end 1.44 20.7) (layer "F.SilkS") (width 0.12) (tstamp f427757f-6267-4ac9-9365-f6599ef0fabd))
    (fp_line (start 10.1 13.08) (end 4.1 13.08) (layer "F.SilkS") (width 0.12) (tstamp f8a4905a-3c14-4b87-b988-434992e50811))
    (fp_line (start -1.27 -1.27) (end 0 -1.27) (layer "F.SilkS") (width 0.12) (tstamp fb66a4c4-acc2-416c-924a-22fc043a1933))
    (fp_line (start 10.55 -1.8) (end -1.8 -1.8) (layer "F.CrtYd") (width 0.05) (tstamp 57d968cf-e27a-428c-bd50-922180b13449))
    (fp_line (start -1.8 -1.8) (end -1.8 39.9) (layer "F.CrtYd") (width 0.05) (tstamp 8b478c54-d83e-4d54-993c-a2b4e0bba5be))
    (fp_line (start 10.55 39.9) (end 10.55 -1.8) (layer "F.CrtYd") (width 0.05) (tstamp c53e69a1-f6ba-4faa-9f3f-44c4e5c07e50))
    (fp_line (start -1.8 39.9) (end 10.55 39.9) (layer "F.CrtYd") (width 0.05) (tstamp fc096046-7fa6-4c6d-a55c-ad2c8193fb18))
    (fp_line (start 4.04 39.37) (end 1.5 39.37) (layer "F.Fab") (width 0.1) (tstamp 00d3399d-cc4d-40c7-8a48-63014e2fbc60))
    (fp_line (start -0.32 30.16) (end 1.5 30.16) (layer "F.Fab") (width 0.1) (tstamp 05e81ea2-17ec-4324-a983-7003bd66da76))
    (fp_line (start 10.04 35.24) (end 10.04 35.88) (layer "F.Fab") (width 0.1) (tstamp 06e463e4-ae80-4719-bc5d-2a82ad83e0cc))
    (fp_line (start 10.04 30.16) (end 10.04 30.8) (layer "F.Fab") (width 0.1) (tstamp 073fe037-832f-45b6-83a5-6a6b444e42ed))
    (fp_line (start -0.32 25.72) (end 1.5 25.72) (layer "F.Fab") (width 0.1) (tstamp 080ea497-04b5-48cf-a29f-1cf8f5fb8634))
    (fp_line (start 4.04 10.48) (end 10.04 10.48) (layer "F.Fab") (width 0.1) (tstamp 0ad3d6cc-c147-4305-aa41-5826c37a1518))
    (fp_line (start 4.04 28.26) (end 10.04 28.26) (layer "F.Fab") (width 0.1) (tstamp 0e1827bc-b6f0-4c77-986b-5bae83fc130e))
    (fp_line (start -0.32 37.78) (end -0.32 38.42) (layer "F.Fab") (width 0.1) (tstamp 0f9c425b-e21f-46fc-baa5-1adb23751341))
    (fp_line (start -0.32 28.26) (end 1.5 28.26) (layer "F.Fab") (width 0.1) (tstamp 11baf2e3-6262-4e89-9a66-aefe3d7bce9c))
    (fp_line (start 4.04 4.76) (end 10.04 4.76) (layer "F.Fab") (width 0.1) (tstamp 19aa1a80-9a10-4342-a229-1cebfa00453b))
    (fp_line (start 10.04 -0.32) (end 10.04 0.32) (layer "F.Fab") (width 0.1) (tstamp 1a37f3ef-3f08-4a77-90cf-aeff35b3fa2e))
    (fp_line (start 4.04 30.16) (end 10.04 30.16) (layer "F.Fab") (width 0.1) (tstamp 1fa82fd1-a400-4239-bc85-edc0eb6bfb2c))
    (fp_line (start -0.32 37.78) (end 1.5 37.78) (layer "F.Fab") (width 0.1) (tstamp 20e49590-dae7-42bd-9470-898194824714))
    (fp_line (start 4.04 20) (end 10.04 20) (layer "F.Fab") (width 0.1) (tstamp 21b6e8d7-8eff-4531-a0b1-213942f1775d))
    (fp_line (start 4.04 7.3) (end 10.04 7.3) (layer "F.Fab") (width 0.1) (tstamp 228bbbba-a919-4365-895d-491c967a6549))
    (fp_line (start -0.32 35.24) (end 1.5 35.24) (layer "F.Fab") (width 0.1) (tstamp 2362356b-1cd2-4b77-a7bf-b83f7e564b88))
    (fp_line (start 4.04 37.78) (end 10.04 37.78) (layer "F.Fab") (width 0.1) (tstamp 26c16e2c-33cb-4f5c-83a6-2797d61d8f4c))
    (fp_line (start -0.32 17.46) (end -0.32 18.1) (layer "F.Fab") (width 0.1) (tstamp 27076192-b19c-4026-8a1e-077a7f7e1463))
    (fp_line (start -0.32 20) (end -0.32 20.64) (layer "F.Fab") (width 0.1) (tstamp 27755c06-f46c-46a6-a6f0-9cfe2fd04653))
    (fp_line (start -0.32 7.3) (end 1.5 7.3) (layer "F.Fab") (width 0.1) (tstamp 2ad7b669-c4cf-43b1-a43b-e8d3359b14e4))
    (fp_line (start 10.04 17.46) (end 10.04 18.1) (layer "F.Fab") (width 0.1) (tstamp 2b9db20c-65e8-4225-a731-071d371889ea))
    (fp_line (start -0.32 35.24) (end -0.32 35.88) (layer "F.Fab") (width 0.1) (tstamp 2e4bedc4-2c2c-4aa6-88d7-a5b475063a4d))
    (fp_line (start 10.04 9.84) (end 10.04 10.48) (layer "F.Fab") (width 0.1) (tstamp 30a72240-48a0-4992-bc69-9ea6622dc03f))
    (fp_line (start 4.04 12.38) (end 10.04 12.38) (layer "F.Fab") (width 0.1) (tstamp 379fa668-8288-43aa-9d33-1c89f938f987))
    (fp_line (start -0.32 30.8) (end 1.5 30.8) (layer "F.Fab") (width 0.1) (tstamp 380b9456-4dd2-4c28-999c-770a32d98431))
    (fp_line (start -0.32 4.76) (end -0.32 5.4) (layer "F.Fab") (width 0.1) (tstamp 398a2864-37c5-400a-85dd-06d31a03a5e3))
    (fp_line (start -0.32 20) (end 1.5 20) (layer "F.Fab") (width 0.1) (tstamp 3a1e99cf-ebb6-45d3-bc65-27659187a9f7))
    (fp_line (start 10.04 2.22) (end 10.04 2.86) (layer "F.Fab") (width 0.1) (tstamp 3f55323c-360d-44db-96fb-241e6a242417))
    (fp_line (start 10.04 32.7) (end 10.04 33.34) (layer "F.Fab") (width 0.1) (tstamp 40763dff-0cc1-4933-8e06-0454e1ccc938))
    (fp_line (start -0.32 2.22) (end -0.32 2.86) (layer "F.Fab") (width 0.1) (tstamp 41b1e611-b9e1-4366-b0f3-1f26b310781d))
    (fp_line (start 4.04 -0.32) (end 10.04 -0.32) (layer "F.Fab") (width 0.1) (tstamp 46d7bb8c-825b-454a-b8be-a78115a96a94))
    (fp_line (start 4.04 25.72) (end 10.04 25.72) (layer "F.Fab") (width 0.1) (tstamp 47851014-5c34-4126-beee-bd2062da63e1))
    (fp_line (start 4.04 2.22) (end 10.04 2.22) (layer "F.Fab") (width 0.1) (tstamp 487257fc-2a6c-4648-b44f-18771a13b41c))
    (fp_line (start 4.04 20.64) (end 10.04 20.64) (layer "F.Fab") (width 0.1) (tstamp 4faebd28-2b70-4a05-9cc8-2690a3970420))
    (fp_line (start -0.32 27.62) (end 1.5 27.62) (layer "F.Fab") (width 0.1) (tstamp 50ae57e0-8929-4ba6-836c-3819fbc0aa83))
    (fp_line (start 2.135 -1.27) (end 4.04 -1.27) (layer "F.Fab") (width 0.1) (tstamp 535dc95b-5659-4991-9c0d-d375297cfcf8))
    (fp_line (start 4.04 33.34) (end 10.04 33.34) (layer "F.Fab") (width 0.1) (tstamp 5b2c1e75-2a08-491d-8e0b-6bad2014531a))
    (fp_line (start -0.32 35.88) (end 1.5 35.88) (layer "F.Fab") (width 0.1) (tstamp 5c1b0f6c-294f-4225-a62f-218d39a236fc))
    (fp_line (start 10.04 25.08) (end 10.04 25.72) (layer "F.Fab") (width 0.1) (tstamp 5fc3a0a7-bc5f-4f92-a3f1-96a0dbc6494f))
    (fp_line (start 4.04 35.88) (end 10.04 35.88) (layer "F.Fab") (width 0.1) (tstamp 602f0dad-7293-4dc5-9af7-72db9ce8cec1))
    (fp_line (start -0.32 14.92) (end 1.5 14.92) (layer "F.Fab") (width 0.1) (tstamp 64ff53c2-0a57-461e-9fcb-51f988ac1dbc))
    (fp_line (start 1.5 -0.635) (end 2.135 -1.27) (layer "F.Fab") (width 0.1) (tstamp 690f7fa6-3031-4368-9f07-a242c45b201f))
    (fp_line (start -0.32 32.7) (end 1.5 32.7) (layer "F.Fab") (width 0.1) (tstamp 6be407fa-6fe2-4580-8308-c745db9f0cb1))
    (fp_line (start 10.04 22.54) (end 10.04 23.18) (layer "F.Fab") (width 0.1) (tstamp 6d34b009-a053-4879-b53c-b2529e0b6f17))
    (fp_line (start -0.32 30.16) (end -0.32 30.8) (layer "F.Fab") (width 0.1) (tstamp 6d6bde76-090f-465c-baee-78c59ee77ef4))
    (fp_line (start 4.04 15.56) (end 10.04 15.56) (layer "F.Fab") (width 0.1) (tstamp 6d79edc1-83b3-4d67-ba11-eb85544e37b3))
    (fp_line (start -0.32 18.1) (end 1.5 18.1) (layer "F.Fab") (width 0.1) (tstamp 71680bf9-35a8-4103-b7d8-62ed4a55923a))
    (fp_line (start -0.32 12.38) (end 1.5 12.38) (layer "F.Fab") (width 0.1) (tstamp 71cea3d8-6184-41d8-96f6-2aced342177f))
    (fp_line (start -0.32 9.84) (end -0.32 10.48) (layer "F.Fab") (width 0.1) (tstamp 731e99e9-44ee-414b-b018-a24ede9a9626))
    (fp_line (start 4.04 25.08) (end 10.04 25.08) (layer "F.Fab") (width 0.1) (tstamp 81b7b4c0-2418-4e72-b09b-ae30eb87ab76))
    (fp_line (start 4.04 5.4) (end 10.04 5.4) (layer "F.Fab") (width 0.1) (tstamp 835fd777-e1e0-4902-9db1-fdd25d2d5108))
    (fp_line (start -0.32 4.76) (end 1.5 4.76) (layer "F.Fab") (width 0.1) (tstamp 86b08188-76f7-4199-acea-5e21b6529827))
    (fp_line (start -0.32 2.22) (end 1.5 2.22) (layer "F.Fab") (width 0.1) (tstamp 875f7181-239c-44c0-b168-b5f14c3e39a1))
    (fp_line (start -0.32 38.42) (end 1.5 38.42) (layer "F.Fab") (width 0.1) (tstamp 88f44b8f-b67e-4aa3-bb4a-ab8b76bfaa44))
    (fp_line (start 10.04 14.92) (end 10.04 15.56) (layer "F.Fab") (width 0.1) (tstamp 89fd7a0a-cc16-4979-a5a4-8518ad149e8c))
    (fp_line (start -0.32 12.38) (end -0.32 13.02) (layer "F.Fab") (width 0.1) (tstamp 8cbc8c1b-e955-47ea-87ef-5076667efb40))
    (fp_line (start 4.04 2.86) (end 10.04 2.86) (layer "F.Fab") (width 0.1) (tstamp 8e0281c9-e117-4cc1-a97a-595b58918909))
    (fp_line (start 4.04 9.84) (end 10.04 9.84) (layer "F.Fab") (width 0.1) (tstamp 8f558fda-5b32-48f0-8167-cc588dd3cd4f))
    (fp_line (start 4.04 -1.27) (end 4.04 39.37) (layer "F.Fab") (width 0.1) (tstamp 9d00d1a0-e8f8-408c-9aaf-a6cb4bd631be))
    (fp_line (start 4.04 27.62) (end 10.04 27.62) (layer "F.Fab") (width 0.1) (tstamp 9d28b765-9113-4d35-a1bc-637e126648c7))
    (fp_line (start -0.32 25.08) (end -0.32 25.72) (layer "F.Fab") (width 0.1) (tstamp a091b447-edbd-4102-a286-bf8fa43e4c44))
    (fp_line (start -0.32 32.7) (end -0.32 33.34) (layer "F.Fab") (width 0.1) (tstamp a0e5b109-df8c-49a0-bc2d-4e48e8cc0e31))
    (fp_line (start -0.32 10.48) (end 1.5 10.48) (layer "F.Fab") (width 0.1) (tstamp a7809997-cb74-4c39-848c-aaba5862dd61))
    (fp_line (start -0.32 27.62) (end -0.32 28.26) (layer "F.Fab") (width 0.1) (tstamp a7cb72b6-4b98-460a-9d94-860c97ba4ee1))
    (fp_line (start 4.04 30.8) (end 10.04 30.8) (layer "F.Fab") (width 0.1) (tstamp ad3874df-ef0a-4fde-9bab-4d80c964404b))
    (fp_line (start 4.04 32.7) (end 10.04 32.7) (layer "F.Fab") (width 0.1) (tstamp b0a1274d-197c-4021-9ae4-539802c41fd2))
    (fp_line (start 10.04 20) (end 10.04 20.64) (layer "F.Fab") (width 0.1) (tstamp b0ac9bc9-4836-4c1d-90a2-12e82253c9ca))
    (fp_line (start -0.32 25.08) (end 1.5 25.08) (layer "F.Fab") (width 0.1) (tstamp b4a9eacd-423c-44b1-93c6-1c3e00fd681a))
    (fp_line (start -0.32 22.54) (end -0.32 23.18) (layer "F.Fab") (width 0.1) (tstamp b5d9a24c-bb70-4f68-867e-2297f1a2f086))
    (fp_line (start 10.04 12.38) (end 10.04 13.02) (layer "F.Fab") (width 0.1) (tstamp bb9f9abd-3e4e-4071-9dd2-e8359ac2a694))
    (fp_line (start 10.04 37.78) (end 10.04 38.42) (layer "F.Fab") (width 0.1) (tstamp bdafc75e-30be-4a7f-8ff5-b701cc41ec96))
    (fp_line (start -0.32 9.84) (end 1.5 9.84) (layer "F.Fab") (width 0.1) (tstamp c108acce-b6da-4745-998c-6c7113a279fe))
    (fp_line (start 4.04 13.02) (end 10.04 13.02) (layer "F.Fab") (width 0.1) (tstamp c24dbafa-9e24-4227-b6b4-a45658607e01))
    (fp_line (start -0.32 -0.32) (end -0.32 0.32) (layer "F.Fab") (width 0.1) (tstamp c6103155-80f3-4e25-b227-45c49d791bc1))
    (fp_line (start -0.32 2.86) (end 1.5 2.86) (layer "F.Fab") (width 0.1) (tstamp cc809e89-d8b3-4f56-be61-e16f53f45925))
    (fp_line (start -0.32 23.18) (end 1.5 23.18) (layer "F.Fab") (width 0.1) (tstamp cd177732-fb14-44fe-b2ac-8675612445eb))
    (fp_line (start 4.04 7.94) (end 10.04 7.94) (layer "F.Fab") (width 0.1) (tstamp d10d2a40-bc9d-4faf-b178-f39f71d2ad1b))
    (fp_line (start -0.32 -0.32) (end 1.5 -0.32) (layer "F.Fab") (width 0.1) (tstamp d677ee08-9999-42ab-8b70-3ba5780e351d))
    (fp_line (start 10.04 4.76) (end 10.04 5.4) (layer "F.Fab") (width 0.1) (tstamp d71ba93e-7ad0-482a-9d64-ee436e58d746))
    (fp_line (start 4.04 38.42) (end 10.04 38.42) (layer "F.Fab") (width 0.1) (tstamp d8269ef7-50cb-477d-8a3d-147ee2eabe62))
    (fp_line (start -0.32 13.02) (end 1.5 13.02) (layer "F.Fab") (width 0.1) (tstamp dce6e536-90c3-4212-821c-31539aee7863))
    (fp_line (start -0.32 17.46) (end 1.5 17.46) (layer "F.Fab") (width 0.1) (tstamp de597283-0fe4-457b-9239-8dd9a0ff1533))
    (fp_line (start -0.32 7.3) (end -0.32 7.94) (layer "F.Fab") (width 0.1) (tstamp dee43623-4345-48df-9069-fec0263c6059))
    (fp_line (start -0.32 20.64) (end 1.5 20.64) (layer "F.Fab") (width 0.1) (tstamp e000f021-fc54-4057-8be8-f03bf827acfe))
    (fp_line (start 4.04 18.1) (end 10.04 18.1) (layer "F.Fab") (width 0.1) (tstamp e196d397-52b7-49b9-acea-9fc00a8a2fa2))
    (fp_line (start 10.04 7.3) (end 10.04 7.94) (layer "F.Fab") (width 0.1) (tstamp e4dd146a-3785-4f46-abb5-5b3985ec34f3))
    (fp_line (start -0.32 22.54) (end 1.5 22.54) (layer "F.Fab") (width 0.1) (tstamp e511cdc3-c37d-4351-956a-dd13382fcf6b))
    (fp_line (start -0.32 15.56) (end 1.5 15.56) (layer "F.Fab") (width 0.1) (tstamp e638d892-e64d-49ec-9154-451200fd65aa))
    (fp_line (start 4.04 23.18) (end 10.04 23.18) (layer "F.Fab") (width 0.1) (tstamp e89cd2f7-a348-425d-9bfa-9c1d61d215b4))
    (fp_line (start 4.04 17.46) (end 10.04 17.46) (layer "F.Fab") (width 0.1) (tstamp e9612f9a-986e-4024-863e-ceaa668e04d4))
    (fp_line (start -0.32 33.34) (end 1.5 33.34) (layer "F.Fab") (width 0.1) (tstamp ec08ee17-3399-40c0-a07b-bf9cc90f5a33))
    (fp_line (start 1.5 39.37) (end 1.5 -0.635) (layer "F.Fab") (width 0.1) (tstamp f1717f7b-a502-4bc8-a3ad-c3880cc0b08b))
    (fp_line (start -0.32 0.32) (end 1.5 0.32) (layer "F.Fab") (width 0.1) (tstamp f47ab1e2-4987-48f6-b9ec-be2b8eaf192d))
    (fp_line (start -0.32 14.92) (end -0.32 15.56) (layer "F.Fab") (width 0.1) (tstamp f4b3beb1-8412-4a2a-a453-b69942f0614e))
    (fp_line (start 4.04 14.92) (end 10.04 14.92) (layer "F.Fab") (width 0.1) (tstamp f4b40e8a-a6e3-48d1-8238-0d695d8896dd))
    (fp_line (start -0.32 5.4) (end 1.5 5.4) (layer "F.Fab") (width 0.1) (tstamp f60f0d0c-febf-4a25-aad9-271ae4e77ebb))
    (fp_line (start 10.04 27.62) (end 10.04 28.26) (layer "F.Fab") (width 0.1) (tstamp f83fd269-5c69-4415-be45-c2182b4d09c8))
    (fp_line (start -0.32 7.94) (end 1.5 7.94) (layer "F.Fab") (width 0.1) (tstamp fc7e0a15-f897-40c7-90c8-3785e6f68fa2))
    (fp_line (start 4.04 35.24) (end 10.04 35.24) (layer "F.Fab") (width 0.1) (tstamp fd656adb-65b8-4aaa-b6b5-92661d51c10d))
    (fp_line (start 4.04 22.54) (end 10.04 22.54) (layer "F.Fab") (width 0.1) (tstamp fe11e5ba-d214-4746-9555-78398879642c))
    (fp_line (start 4.04 0.32) (end 10.04 0.32) (layer "F.Fab") (width 0.1) (tstamp fe775355-65bd-4472-8b2f-800ddba319b7))
    (pad "1" thru_hole circle locked (at 0 0 270) (size 1.7 1.7) (drill 1) (layers *.Cu *.Mask)
      (net 38 "A0") (pinfunction "Pin_1") (pintype "passive") (tstamp 7f731b02-98f5-40e8-8d26-9be309b95f5d))
    (pad "2" thru_hole oval locked (at 0 2.54 270) (size 1.7 1.7) (drill 1) (layers *.Cu *.Mask)
      (net 37 "A1") (pinfunction "Pin_2") (pintype "passive") (tstamp 523e759a-54a5-4143-81c1-f23da7b4d31d))
    (pad "3" thru_hole oval locked (at 0 5.08 270) (size 1.7 1.7) (drill 1) (layers *.Cu *.Mask)
      (net 36 "A2") (pinfunction "Pin_3") (pintype "passive") (tstamp ce0be731-a315-4c12-b362-82c76c53f4f6))
    (pad "4" thru_hole oval locked (at 0 7.62 270) (size 1.7 1.7) (drill 1) (layers *.Cu *.Mask)
      (net 35 "A3") (pinfunction "Pin_4") (pintype "passive") (tstamp 81152c43-a72e-4c60-969b-0f5c7f52c3ef))
    (pad "5" thru_hole oval locked (at 0 10.16 270) (size 1.7 1.7) (drill 1) (layers *.Cu *.Mask)
      (net 34 "A4") (pinfunction "Pin_5") (pintype "passive") (tstamp b9557ae5-70ff-4c86-9281-b0e722d39748))
    (pad "6" thru_hole oval locked (at 0 12.7 270) (size 1.7 1.7) (drill 1) (layers *.Cu *.Mask)
      (net 33 "A5") (pinfunction "Pin_6") (pintype "passive") (tstamp 4d64f95d-43b3-4d39-ad38-bd8d2e073777))
    (pad "7" thru_hole oval locked (at 0 15.24 270) (size 1.7 1.7) (drill 1) (layers *.Cu *.Mask)
      (net 32 "A6") (pinfunction "Pin_7") (pintype "passive") (tstamp d5ddf130-4785-41b9-8889-b68363818be0))
    (pad "8" thru_hole oval locked (at 0 17.78 270) (size 1.7 1.7) (drill 1) (layers *.Cu *.Mask)
      (net 31 "A7") (pinfunction "Pin_8") (pintype "passive") (tstamp 8e5d17b9-1218-4562-8d79-e85b0f15b7a2))
    (pad "9" thru_hole oval locked (at 0 20.32 270) (size 1.7 1.7) (drill 1) (layers *.Cu *.Mask)
      (net 30 "A8") (pinfunction "Pin_9") (pintype "passive") (tstamp 9cc264ba-0b7f-4ea8-a5ba-9befd14015d6))
    (pad "10" thru_hole oval locked (at 0 22.86 270) (size 1.7 1.7) (drill 1) (layers *.Cu *.Mask)
      (net 29 "A9") (pinfunction "Pin_10") (pintype "passive") (tstamp 3e8bd878-4967-4dea-9695-e16655a8c1c2))
    (pad "11" thru_hole oval locked (at 0 25.4 270) (size 1.7 1.7) (drill 1) (layers *.Cu *.Mask)
      (net 28 "A10") (pinfunction "Pin_11") (pintype "passive") (tstamp f7f1e5d2-456b-4531-bded-de1978769dc2))
    (pad "12" thru_hole oval locked (at 0 27.94 270) (size 1.7 1.7) (drill 1) (layers *.Cu *.Mask)
      (net 27 "A11") (pinfunction "Pin_12") (pintype "passive") (tstamp e1c2de5c-db4f-4f47-95a7-eaeef4837afb))
    (pad "13" thru_hole oval locked (at 0 30.48 270) (size 1.7 1.7) (drill 1) (layers *.Cu *.Mask)
      (net 26 "A12") (pinfunction "Pin_13") (pintype "passive") (tstamp 6963c73d-1d48-4935-baef-f887c2814830))
    (pad "14" thru_hole oval locked (at 0 33.02 270) (size 1.7 1.7) (drill 1) (layers *.Cu *.Mask)
      (net 25 "A13") (pinfunction "Pin_14") (pintype "passive") (tstamp b5ab0548-2cd4-4524-b064-94218f1f6e2c))
    (pad "15" thru_hole oval locked (at 0 35.56 270) (size 1.7 1.7) (drill 1) (layers *.Cu *.Mask)
      (net 24 "A14") (pinfunction "Pin_15") (pintype "passive") (tstamp eaff5b26-f33b-4793-a0ad-606a17338a1a))
    (pad "16" thru_hole rect locked (at 0 38.1 270) (size 1.7 1.7) (drill 1) (layers *.Cu *.Mask)
      (net 23 "A15") (pinfunction "Pin_16") (pintype "passive") (tstamp f445805e-70f2-482e-9b89-17d915a6a784))
    (model "${KICAD6_3DMODEL_DIR}/Connector_PinHeader_2.54mm.3dshapes/PinHeader_1x16_P2.54mm_Horizontal.wrl"
      (offset (xyz 0 0 0))
      (scale (xyz 1 1 1))
      (rotate (xyz 0 0 0))
    )
  )

  (footprint "Connector_PinHeader_2.54mm:PinHeader_2x23_P2.54mm_Horizontal" locked (layer "F.Cu")
    (tedit 59FED5CB) (tstamp ccb20106-0afd-41cf-a2a7-f27fa13a1a2d)
    (at 196.2578 126.8476 -90)
    (descr "Through hole angled pin header, 2x23, 2.54mm pitch, 6mm pin length, double rows")
    (tags "Through hole angled pin header THT 2x23 2.54mm double row")
    (property "MPN" "TSW-110-08-S-D-RA")
    (property "Manufacturer" "Samtec")
    (property "Sheetfile" "rc2014-template16.kicad_sch")
    (property "Sheetname" "")
    (path "/2778cadb-eb1c-4d7f-9b46-a15c80058a4f")
    (attr through_hole)
    (fp_text reference "PC2" (at 5.655 -2.27 90) (layer "F.SilkS")
      (effects (font (size 1 1) (thickness 0.15)))
      (tstamp 8cd069ba-7266-4a98-9214-2f7b66bbaecb)
    )
    (fp_text value "Conn_02x10_Male" (at 5.655 58.15 90) (layer "F.Fab")
      (effects (font (size 1 1) (thickness 0.15)))
      (tstamp 99aae390-3317-4883-b0da-02c239146c6a)
    )
    (fp_text user "${REFERENCE}" (at 5.31 27.94) (layer "F.Fab")
      (effects (font (size 1 1) (thickness 0.15)))
      (tstamp 9da8aba9-d55e-4a51-bcf7-77aa1c1d69a5)
    )
    (fp_line (start 12.64 47.88) (end 12.64 48.64) (layer "F.SilkS") (width 0.12) (tstamp 002af1b1-9309-41e0-a2d6-19c36213c86e))
    (fp_line (start 12.64 8) (end 6.64 8) (layer "F.SilkS") (width 0.12) (tstamp 0072a531-1214-4a46-b8a7-780d7dafa7f7))
    (fp_line (start 3.582929 2.16) (end 3.98 2.16) (layer "F.SilkS") (width 0.12) (tstamp 01de69a6-758c-496a-8536-3aa63a161203))
    (fp_line (start 3.582929 56.26) (end 3.98 56.26) (layer "F.SilkS") (width 0.12) (tstamp 04fa5091-3c82-4235-a3c8-4bb3fc9b6d21))
    (fp_line (start 3.582929 9.78) (end 3.98 9.78) (layer "F.SilkS") (width 0.12) (tstamp 055e7639-72af-40c7-ab92-36097a383510))
    (fp_line (start 1.042929 41.02) (end 1.497071 41.02) (layer "F.SilkS") (width 0.12) (tstamp 0ba7caf7-a1f0-47c7-ab3d-7d9dc81111dd))
    (fp_line (start 3.582929 30.1) (end 3.98 30.1) (layer "F.SilkS") (width 0.12) (tstamp 0cba1975-c230-4a04-a5de-ff1479f32b68))
    (fp_line (start 1.11 0.38) (end 1.497071 0.38) (layer "F.SilkS") (width 0.12) (tstamp 0d05dbb3-3aeb-4a31-a7b3-7e96158b538f))
    (fp_line (start 1.042929 32.64) (end 1.497071 32.64) (layer "F.SilkS") (width 0.12) (tstamp 0d8022b6-8c40-4c96-9cef-ebbf642ccfd1))
    (fp_line (start 3.98 44.45) (end 6.64 44.45) (layer "F.SilkS") (width 0.12) (tstamp 10fdd4d8-df71-4938-9ac9-3a4cfce30270))
    (fp_line (start 12.64 40.26) (end 12.64 41.02) (layer "F.SilkS") (width 0.12) (tstamp 11506e9a-f303-4818-8257-10f0795d3374))
    (fp_line (start 12.64 56.26) (end 6.64 56.26) (layer "F.SilkS") (width 0.12) (tstamp 119dd4c7-6aa0-4214-82f9-82a3ac2fd93a))
    (fp_line (start 1.042929 45.34) (end 1.497071 45.34) (layer "F.SilkS") (width 0.12) (tstamp 125fe196-d014-4519-9b7b-8bf448fefd36))
    (fp_line (start 3.98 49.53) (end 6.64 49.53) (layer "F.SilkS") (width 0.12) (tstamp 1272ba42-4e12-413f-b1f1-a2081a8966ef))
    (fp_line (start 1.042929 2.16) (end 1.497071 2.16) (layer "F.SilkS") (width 0.12) (tstamp 12b957e9-c9dc-47ee-95dd-23fb5fbae145))
    (fp_line (start 3.582929 35.94) (end 3.98 35.94) (layer "F.SilkS") (width 0.12) (tstamp 12fb0763-2b9a-4aff-b67b-a9645ee5420e))
    (fp_line (start 3.98 39.37) (end 6.64 39.37) (layer "F.SilkS") (width 0.12) (tstamp 15029b3c-02f5-4f58-a746-9a6118e92ad5))
    (fp_line (start 3.582929 25.78) (end 3.98 25.78) (layer "F.SilkS") (width 0.12) (tstamp 158f9131-3053-4575-bc6d-4ff52cbf2e27))
    (fp_line (start 3.582929 25.02) (end 3.98 25.02) (layer "F.SilkS") (width 0.12) (tstamp 163f9796-20c6-4487-b964-4cb036292db2))
    (fp_line (start 3.98 19.05) (end 6.64 19.05) (layer "F.SilkS") (width 0.12) (tstamp 16b2609d-52c3-4b83-98e7-1e567c46aef1))
    (fp_line (start 3.98 24.13) (end 6.64 24.13) (layer "F.SilkS") (width 0.12) (tstamp 16d9c965-1ddf-4cd4-91c5-75c6eb921609))
    (fp_line (start 12.64 35.94) (end 6.64 35.94) (layer "F.SilkS") (width 0.12) (tstamp 17e285dc-4396-497e-b7c4-58b0d147bfa7))
    (fp_line (start 1.042929 35.18) (end 1.497071 35.18) (layer "F.SilkS") (width 0.12) (tstamp 190031c2-d333-4303-abf4-9347f4d58c82))
    (fp_line (start 6.64 22.48) (end 12.64 22.48) (layer "F.SilkS") (width 0.12) (tstamp 19da8b9a-2c84-48c7-a1fa-7102c8b055ab))
    (fp_line (start 12.64 41.02) (end 6.64 41.02) (layer "F.SilkS") (width 0.12) (tstamp 19e99721-f4ac-4450-967f-3a346ee03568))
    (fp_line (start 3.582929 10.54) (end 3.98 10.54) (layer "F.SilkS") (width 0.12) (tstamp 1a70d186-286b-428c-bf39-6c665d993ed2))
    (fp_line (start 3.98 26.67) (end 6.64 26.67) (layer "F.SilkS") (width 0.12) (tstamp 1adbe71d-6bc7-4826-bfe6-990bc4b840c8))
    (fp_line (start 6.64 7.24) (end 12.64 7.24) (layer "F.SilkS") (width 0.12) (tstamp 1b3ac6db-05f8-4235-b0f0-d033175a3f94))
    (fp_line (start 12.64 37.72) (end 12.64 38.48) (layer "F.SilkS") (width 0.12) (tstamp 1b405dad-a8c7-42df-9fa1-874d09f36efe))
    (fp_line (start 1.042929 50.42) (end 1.497071 50.42) (layer "F.SilkS") (width 0.12) (tstamp 1c35045d-18e3-44a1-add3-23df0d79ef80))
    (fp_line (start 3.582929 33.4) (end 3.98 33.4) (layer "F.SilkS") (width 0.12) (tstamp 1c35b4e8-7dd9-43ce-bceb-2b49278e93e6))
    (fp_line (start 3.582929 27.56) (end 3.98 27.56) (layer "F.SilkS") (width 0.12) (tstamp 22c101c3-1bc0-484f-9fb5-d0ea1ca6804f))
    (fp_line (start 12.64 33.4) (end 6.64 33.4) (layer "F.SilkS") (width 0.12) (tstamp 242fbba2-0e58-4a43-b902-4152494e4606))
    (fp_line (start 1.042929 51.18) (end 1.497071 51.18) (layer "F.SilkS") (width 0.12) (tstamp 2444dab6-2c83-4a4a-8001-633524e5a2ff))
    (fp_line (start 12.64 42.8) (end 12.64 43.56) (layer "F.SilkS") (width 0.12) (tstamp 255743ed-0ddd-4e73-bada-fce2425f7a4f))
    (fp_line (start 3.582929 35.18) (end 3.98 35.18) (layer "F.SilkS") (width 0.12) (tstamp 25a3a88c-ac09-4155-a111-24201ee62511))
    (fp_line (start 6.64 -0.2) (end 12.64 -0.2) (layer "F.SilkS") (width 0.12) (tstamp 26104d62-2f89-4eaf-b9c8-798ab5078e20))
    (fp_line (start 3.582929 28.32) (end 3.98 28.32) (layer "F.SilkS") (width 0.12) (tstamp 28f2ba28-48e5-41e8-afa4-2da70da5daa7))
    (fp_line (start 12.64 22.48) (end 12.64 23.24) (layer "F.SilkS") (width 0.12) (tstamp 2937eb1d-9e2a-44b4-bcea-50b2c3c29e4a))
    (fp_line (start 6.64 -0.32) (end 12.64 -0.32) (layer "F.SilkS") (width 0.12) (tstamp 296bad1f-e31f-4cd3-bd6a-1373493db349))
    (fp_line (start 12.64 13.08) (end 6.64 13.08) (layer "F.SilkS") (width 0.12) (tstamp 2a37e441-cddc-4e1b-a8c7-fb24e7d3009b))
    (fp_line (start 6.64 -0.08) (end 12.64 -0.08) (layer "F.SilkS") (width 0.12) (tstamp 2c1986cf-95fc-404d-9c2a-a14ed0422f4e))
    (fp_line (start 3.582929 4.7) (end 3.98 4.7) (layer "F.SilkS") (width 0.12) (tstamp 2c38f60e-c8bd-4e7f-ba1a-daecdada36cc))
    (fp_line (start 3.98 16.51) (end 6.64 16.51) (layer "F.SilkS") (width 0.12) (tstamp 2cae896f-767b-4249-be71-1816275e87d8))
    (fp_line (start 3.98 6.35) (end 6.64 6.35) (layer "F.SilkS") (width 0.12) (tstamp 2d598208-ecd3-43f8-992b-2096fcd9586f))
    (fp_line (start 12.64 38.48) (end 6.64 38.48) (layer "F.SilkS") (width 0.12) (tstamp 2d7b09fa-5add-4d17-9292-c78bc9401915))
    (fp_line (start 6.64 55.5) (end 12.64 55.5) (layer "F.SilkS") (width 0.12) (tstamp 2dc397f4-9626-4b11-9d4e-c52252999613))
    (fp_line (start 12.64 10.54) (end 6.64 10.54) (layer "F.SilkS") (width 0.12) (tstamp 2de31f1d-b049-42b0-ba1b-780234f1bf3b))
    (fp_line (start 1.042929 35.94) (end 1.497071 35.94) (layer "F.SilkS") (width 0.12) (tstamp 3119ed1e-412d-4683-aeb8-abb9ae0d9fd3))
    (fp_line (start 3.582929 38.48) (end 3.98 38.48) (layer "F.SilkS") (width 0.12) (tstamp 3150c4eb-45b2-40aa-859e-1daecc297e90))
    (fp_line (start 3.582929 22.48) (end 3.98 22.48) (layer "F.SilkS") (width 0.12) (tstamp 31fe0a3f-0ede-45cb-a103-b2cd4894216e))
    (fp_line (start 1.042929 46.1) (end 1.497071 46.1) (layer "F.SilkS") (width 0.12) (tstamp 32d5dc46-63d5-4cc9-8e69-b1d6903e31d1))
    (fp_line (start 12.64 0.38) (end 6.64 0.38) (layer "F.SilkS") (width 0.12) (tstamp 353bbf81-82d9-4a9b-ba52-8e2ac35364d4))
    (fp_line (start 12.64 17.4) (end 12.64 18.16) (layer "F.SilkS") (width 0.12) (tstamp 376af564-2e5c-4614-804b-603556706dd3))
    (fp_line (start 6.64 42.8) (end 12.64 42.8) (layer "F.SilkS") (width 0.12) (tstamp 3780a303-d11a-4790-b540-87ac4c493a1a))
    (fp_line (start 12.64 30.1) (end 12.64 30.86) (layer "F.SilkS") (width 0.12) (tstamp 37990023-4170-4e23-97b9-9b52776ffdb1))
    (fp_line (start 12.64 20.7) (end 6.64 20.7) (layer "F.SilkS") (width 0.12) (tstamp 38e9a248-b16c-4c02-b21f-1397c4a1cbe3))
    (fp_line (start 6.64 14.86) (end 12.64 14.86) (layer "F.SilkS") (width 0.12) (tstamp 39e20036-de9b-48be-b04b-8b427331dfa2))
    (fp_line (start 12.64 55.5) (end 12.64 56.26) (layer "F.SilkS") (width 0.12) (tstamp 3b9bb81e-307e-42d1-a509-d1e1946f4110))
    (fp_line (start 3.98 29.21) (end 6.64 29.21) (layer "F.SilkS") (width 0.12) (tstamp 3c3e3bef-0bb8-4ea4-9aba-70b607909f85))
    (fp_line (start 3.582929 40.26) (end 3.98 40.26) (layer "F.SilkS") (width 0.12) (tstamp 3c90e089-0d44-439f-a24a-e7d53b9b6978))
    (fp_line (start 1.042929 47.88) (end 1.497071 47.88) (layer "F.SilkS") (width 0.12) (tstamp 3d1189fd-1bb7-404e-a59d-1db933480298))
    (fp_line (start 1.042929 40.26) (end 1.497071 40.26) (layer "F.SilkS") (width 0.12) (tstamp 3e43311a-0912-4d9e-94b1-60b6c9e1cdc8))
    (fp_line (start 3.582929 2.92) (end 3.98 2.92) (layer "F.SilkS") (width 0.12) (tstamp 3e6a3047-039a-4523-b160-1783a4114843))
    (fp_line (start 12.64 -0.38) (end 12.64 0.38) (layer "F.SilkS") (width 0.12) (tstamp 3ef8030f-f3df-4259-9cb5-71550cd173ec))
    (fp_line (start 12.64 43.56) (end 6.64 43.56) (layer "F.SilkS") (width 0.12) (tstamp 40df6b32-d917-4f41-99f6-d5877a96057e))
    (fp_line (start 3.582929 19.94) (end 3.98 19.94) (layer "F.SilkS") (width 0.12) (tstamp 426014b5-be2c-49d4-b511-24dc68220efb))
    (fp_line (start 3.98 21.59) (end 6.64 21.59) (layer "F.SilkS") (width 0.12) (tstamp 4346667d-67e1-4c0c-a8cf-d1b76ca5add2))
    (fp_line (start 6.64 2.16) (end 12.64 2.16) (layer "F.SilkS") (width 0.12) (tstamp 44a91e09-f975-434e-bb13-cd3eaf13e778))
    (fp_line (start 6.64 0.04) (end 12.64 0.04) (layer "F.SilkS") (width 0.12) (tstamp 4750e4c6-abbf-472a-84d9-820a87dcd8d9))
    (fp_line (start 12.64 51.18) (end 6.64 51.18) (layer "F.SilkS") (width 0.12) (tstamp 479f2a9f-56e9-4a12-aa7a-0ac6570f241a))
    (fp_line (start 6.64 40.26) (end 12.64 40.26) (layer "F.SilkS") (width 0.12) (tstamp 47dff6af-19f2-48a2-b483-df0fad021741))
    (fp_line (start 1.042929 8) (end 1.497071 8) (layer "F.SilkS") (width 0.12) (tstamp 496361aa-f057-4def-94b6-b95bdda1d593))
    (fp_line (start 6.64 50.42) (end 12.64 50.42) (layer "F.SilkS") (width 0.12) (tstamp 4b6928ce-43d1-4df4-a81c-c5bcbaa3cb01))
    (fp_line (start 3.582929 43.56) (end 3.98 43.56) (layer "F.SilkS") (width 0.12) (tstamp 4e0485e4-4102-4fbf-be5c-1ea8ea8473a7))
    (fp_line (start 3.582929 14.86) (end 3.98 14.86) (layer "F.SilkS") (width 0.12) (tstamp 4ef1b933-f93d-47e4-941c-0bed8221bfdb))
    (fp_line (start 3.98 3.81) (end 6.64 3.81) (layer "F.SilkS") (width 0.12) (tstamp 4fac10d9-a546-4eec-a899-32e3f4a8f144))
    (fp_line (start 1.042929 27.56) (end 1.497071 27.56) (layer "F.SilkS") (width 0.12) (tstamp 50884694-9008-4859-aa95-e5aee76c43d3))
    (fp_line (start 12.64 9.78) (end 12.64 10.54) (layer "F.SilkS") (width 0.12) (tstamp 526154c8-0daa-491d-8d2f-263f351b303a))
    (fp_line (start 3.582929 50.42) (end 3.98 50.42) (layer "F.SilkS") (width 0.12) (tstamp 52a5ec70-40db-40cb-8757-266ad99efe15))
    (fp_line (start 3.98 31.75) (end 6.64 31.75) (layer "F.SilkS") (width 0.12) (tstamp 57d98f25-553c-4fd2-923b-fa9a3454b5b7))
    (fp_line (start 12.64 50.42) (end 12.64 51.18) (layer "F.SilkS") (width 0.12) (tstamp 5e686938-07a8-47b2-b4a6-4bb568ad18b3))
    (fp_line (start 12.64 4.7) (end 12.64 5.46) (layer "F.SilkS") (width 0.12) (tstamp 60cb8716-9f21-49c8-bb44-4eabe10f1331))
    (fp_line (start 12.64 23.24) (end 6.64 23.24) (layer "F.SilkS") (width 0.12) (tstamp 623a5535-342d-4b8c-833b-472cb55dfe17))
    (fp_line (start 6.64 45.34) (end 12.64 45.34) (layer "F.SilkS") (width 0.12) (tstamp 6295541c-8d1c-4b29-b3c8-d7d6ffb2f5a5))
    (fp_line (start 1.042929 48.64) (end 1.497071 48.64) (layer "F.SilkS") (width 0.12) (tstamp 62ca7af6-1afc-4ed1-9750-576b911d2acb))
    (fp_line (start 1.042929 33.4) (end 1.497071 33.4) (layer "F.SilkS") (width 0.12) (tstamp 66848524-b1e1-4302-a677-b58e8baea686))
    (fp_line (start 1.042929 30.86) (end 1.497071 30.86) (layer "F.SilkS") (width 0.12) (tstamp 6977dc90-e16a-40ad-b41e-5854be88d5e4))
    (fp_line (start 12.64 25.78) (end 6.64 25.78) (layer "F.SilkS") (width 0.12) (tstamp 699fc905-d31c-44c1-95a7-ac9d728114fe))
    (fp_line (start 12.64 25.02) (end 12.64 25.78) (layer "F.SilkS") (width 0.12) (tstamp 6b885e08-4f7d-4ae2-87ea-e6303d989b26))
    (fp_line (start 1.042929 43.56) (end 1.497071 43.56) (layer "F.SilkS") (width 0.12) (tstamp 6cc2c338-953f-4a54-a080-6164f003c8f9))
    (fp_line (start 3.582929 48.64) (end 3.98 48.64) (layer "F.SilkS") (width 0.12) (tstamp 70e54909-8320-44d6-a49f-b5777280202f))
    (fp_line (start 6.64 30.1) (end 12.64 30.1) (layer "F.SilkS") (width 0.12) (tstamp 70f3bb2b-9f53-40cd-a972-9aba0c43766f))
    (fp_line (start 1.042929 9.78) (end 1.497071 9.78) (layer "F.SilkS") (width 0.12) (tstamp 733e2940-38ed-4dda-83c3-e3976aadd5be))
    (fp_line (start 3.98 34.29) (end 6.64 34.29) (layer "F.SilkS") (width 0.12) (tstamp 784b227c-3957-4e84-9d91-4256d45869d0))
    (fp_line (start 1.042929 37.72) (end 1.497071 37.72) (layer "F.SilkS") (width 0.12) (tstamp 789bcb22-5ff7-479c-bb97-e5a75c76d54e))
    (fp_line (start 3.582929 8) (end 3.98 8) (layer "F.SilkS") (width 0.12) (tstamp 798b8e24-079c-442b-8549-07ae42e94505))
    (fp_line (start 6.64 57.21) (end 6.64 -1.33) (layer "F.SilkS") (width 0.12) (tstamp 7c791249-d1bb-470d-8efe-a6846d8e481d))
    (fp_line (start 3.582929 52.96) (end 3.98 52.96) (layer "F.SilkS") (width 0.12) (tstamp 7c9a1ec9-ae66-4b62-a03b-f39dfde39db0))
    (fp_line (start 3.98 54.61) (end 6.64 54.61) (layer "F.SilkS") (width 0.12) (tstamp 7ca1d2e3-6050-436e-ba74-724cf492a9ad))
    (fp_line (start 1.11 -0.38) (end 1.497071 -0.38) (layer "F.SilkS") (width 0.12) (tstamp 7d314e87-4f82-4ae2-857d-8252a7b1767d))
    (fp_line (start 3.582929 45.34) (end 3.98 45.34) (layer "F.SilkS") (width 0.12) (tstamp 7e6272cd-b923-4431-a7be-dfaecbd85931))
    (fp_line (start 6.64 4.7) (end 12.64 4.7) (layer "F.SilkS") (width 0.12) (tstamp 7f806241-c06a-409a-bf78-2f9171f53e3b))
    (fp_line (start 3.98 11.43) (end 6.64 11.43) (layer "F.SilkS") (width 0.12) (tstamp 80a16cae-cad4-4970-b368-362a2e0af26e))
    (fp_line (start 12.64 32.64) (end 12.64 33.4) (layer "F.SilkS") (width 0.12) (tstamp 80aa76b6-d573-4f12-9ca5-b00cf95a1145))
    (fp_line (start 1.042929 7.24) (end 1.497071 7.24) (layer "F.SilkS") (width 0.12) (tstamp 8299cea6-9d16-46e7-a722-3524f84fcf72))
    (fp_line (start 3.582929 17.4) (end 3.98 17.4) (layer "F.SilkS") (width 0.12) (tstamp 83bb0726-44b6-4f44-b78e-5885e4c7c354))
    (fp_line (start 6.64 52.96) (end 12.64 52.96) (layer "F.SilkS") (width 0.12) (tstamp 8413c0f6-31f5-46fa-b4a5-f1c203d22c5a))
    (fp_line (start 12.64 18.16) (end 6.64 18.16) (layer "F.SilkS") (width 0.12) (tstamp 85f33711-878a-4bc8-b66e-cacde4769286))
    (fp_line (start 12.64 19.94) (end 12.64 20.7) (layer "F.SilkS") (width 0.12) (tstamp 8797d6a2-e09a-4ff7-a7b2-1a183253c3ac))
    (fp_line (start 1.042929 12.32) (end 1.497071 12.32) (layer "F.SilkS") (width 0.12) (tstamp 8b083f57-f82c-479e-8f43-c3d09468a85f))
    (fp_line (start 12.64 53.72) (end 6.64 53.72) (layer "F.SilkS") (width 0.12) (tstamp 8c0a2f48-d145-4621-a1d7-5bb4f43bed4d))
    (fp_line (start 1.042929 20.7) (end 1.497071 20.7) (layer "F.SilkS") (width 0.12) (tstamp 8d7ae8b2-d119-4ce0-96ae-b9e23fedd718))
    (fp_line (start 3.582929 47.88) (end 3.98 47.88) (layer "F.SilkS") (width 0.12) (tstamp 8df6c02c-b609-4a1a-815e-7343ac497647))
    (fp_line (start 3.582929 20.7) (end 3.98 20.7) (layer "F.SilkS") (width 0.12) (tstamp 8e68c549-930e-4b77-8788-58d1f894394b))
    (fp_line (start 6.64 19.94) (end 12.64 19.94) (layer "F.SilkS") (width 0.12) (tstamp 901b854c-e6fc-4b1e-a2aa-8a020dafae8e))
    (fp_line (start 6.64 17.4) (end 12.64 17.4) (layer "F.SilkS") (width 0.12) (tstamp 910389d1-caca-4c21-a6d0-059d7aff2ab3))
    (fp_line (start 3.98 8.89) (end 6.64 8.89) (layer "F.SilkS") (width 0.12) (tstamp 9350427a-a77c-4298-a7cd-3885d2a9cbcc))
    (fp_line (start 1.042929 13.08) (end 1.497071 13.08) (layer "F.SilkS") (width 0.12) (tstamp 94609725-2538-41de-8395-5cc3619fb4c1))
    (fp_line (start 3.582929 -0.38) (end 3.98 -0.38) (layer "F.SilkS") (width 0.12) (tstamp 96758996-7005-4701-a1fc-28e0ad02eea0))
    (fp_line (start 3.98 36.83) (end 6.64 36.83) (layer "F.SilkS") (width 0.12) (tstamp 9675d328-783f-4bc0-a959-780d303bc83c))
    (fp_line (start 12.64 27.56) (end 12.64 28.32) (layer "F.SilkS") (width 0.12) (tstamp 96f87811-d270-40d6-a4dc-1d4a6d361b21))
    (fp_line (start 1.042929 56.26) (end 1.497071 56.26) (layer "F.SilkS") (width 0.12) (tstamp 982296b0-8605-465d-81e1-71a4919cf5e7))
    (fp_line (start 1.042929 23.24) (end 1.497071 23.24) (layer "F.SilkS") (width 0.12) (tstamp 9a8757e2-a17c-4345-97f5-cd6e689bf2b2))
    (fp_line (start 1.042929 5.46) (end 1.497071 5.46) (layer "F.SilkS") (width 0.12) (tstamp 9b50cd44-7b2c-4ae8-8512-4204fdc1f2b4))
    (fp_line (start 6.64 47.88) (end 12.64 47.88) (layer "F.SilkS") (width 0.12) (tstamp 9d1789c2-ccd9-42a9-b6f6-357acda5e628))
    (fp_line (start 3.582929 12.32) (end 3.98 12.32) (layer "F.SilkS") (width 0.12) (tstamp 9dd6da0a-0928-48f7-926c-63eb547a9491))
    (fp_line (start 12.64 14.86) (end 12.64 15.62) (layer "F.SilkS") (width 0.12) (tstamp 9f218e95-3b3e-4277-a47c-104032a95a85))
    (fp_line (start 3.98 41.91) (end 6.64 41.91) (layer "F.SilkS") (width 0.12) (tstamp a0513463-34b0-415a-b271-815b6585011a))
    (fp_line (start 6.64 0.28) (end 12.64 0.28) (layer "F.SilkS") (width 0.12) (tstamp a0529985-6c1d-41ec-8060-a85ec7a9603f))
    (fp_line (start 3.582929 42.8) (end 3.98 42.8) (layer "F.SilkS") (width 0.12) (tstamp a1e5765e-fbcb-40df-b7b8-0f287db0fedf))
    (fp_line (start 6.64 27.56) (end 12.64 27.56) (layer "F.SilkS") (width 0.12) (tstamp a248db6c-9bf9-458c-a7ee-190e05968c02))
    (fp_line (start 3.582929 30.86) (end 3.98 30.86) (layer "F.SilkS") (width 0.12) (tstamp a4882620-b007-461f-9610-e22a3feabe23))
    (fp_line (start 3.98 -1.33) (end 3.98 57.21) (layer "F.SilkS") (width 0.12) (tstamp a552f227-a813-48e5-8fe6-bb06da6929aa))
    (fp_line (start 12.64 45.34) (end 12.64 46.1) (layer "F.SilkS") (width 0.12) (tstamp a6215da7-5409-4a6a-8a89-21a24f4840dd))
    (fp_line (start 3.582929 46.1) (end 3.98 46.1) (layer "F.SilkS") (width 0.12) (tstamp a68480b6-5e4f-4e33-b5dd-564ce0d05584))
    (fp_line (start 12.64 15.62) (end 6.64 15.62) (layer "F.SilkS") (width 0.12) (tstamp a80ca6d7-0af3-46ef-a57b-ac5125fc00b0))
    (fp_line (start 12.64 5.46) (end 6.64 5.46) (layer "F.SilkS") (width 0.12) (tstamp a86ab04c-eb84-46f7-821c-2fc40601cc5a))
    (fp_line (start 6.64 37.72) (end 12.64 37.72) (layer "F.SilkS") (width 0.12) (tstamp a9276857-9df9-4e8f-b413-33a0ce01958b))
    (fp_line (start 1.042929 28.32) (end 1.497071 28.32) (layer "F.SilkS") (width 0.12) (tstamp a950a648-c6fc-4715-b880-019271fdc021))
    (fp_line (start 1.042929 18.16) (end 1.497071 18.16) (layer "F.SilkS") (width 0.12) (tstamp ab6bb119-622d-4700-b0b7-929f6b06c7f1))
    (fp_line (start 1.042929 25.02) (end 1.497071 25.02) (layer "F.SilkS") (width 0.12) (tstamp ab95c202-1789-4c41-8c3a-3a4cad80b5ff))
    (fp_line (start 6.64 -0.38) (end 12.64 -0.38) (layer "F.SilkS") (width 0.12) (tstamp ac16a347-294d-431b-aca0-92cb5b331ce4))
    (fp_line (start 3.582929 15.62) (end 3.98 15.62) (layer "F.SilkS") (width 0.12) (tstamp ac28ece5-9a8c-4d0e-aa4d-879e7ee3acb3))
    (fp_line (start 12.64 2.92) (end 6.64 2.92) (layer "F.SilkS") (width 0.12) (tstamp ac4b1a0b-f336-4efa-9f30-d1ed3d3e0e86))
    (fp_line (start 1.042929 52.96) (end 1.497071 52.96) (layer "F.SilkS") (width 0.12) (tstamp ac4eeb55-f269-4e48-96e2-9252b669ac68))
    (fp_line (start 3.582929 0.38) (end 3.98 0.38) (layer "F.SilkS") (width 0.12) (tstamp afaf12ba-d4bd-4ffb-a446-eea7073b8015))
    (fp_line (start 3.582929 41.02) (end 3.98 41.02) (layer "F.SilkS") (width 0.12) (tstamp b0bfb577-db91-4085-af1e-e7fc774cbb68))
    (fp_line (start 3.98 57.21) (end 6.64 57.21) (layer "F.SilkS") (width 0.12) (tstamp b3d0c02b-59b1-4c86-81ae-436c3347ccf4))
    (fp_line (start 1.042929 17.4) (end 1.497071 17.4) (layer "F.SilkS") (width 0.12) (tstamp b53cd833-c531-42c9-8ed7-4f6174750fcd))
    (fp_line (start 6.64 -1.33) (end 3.98 -1.33) (layer "F.SilkS") (width 0.12) (tstamp b69661f3-63ca-4117-8be4-6932861bb270))
    (fp_line (start 3.582929 53.72) (end 3.98 53.72) (layer "F.SilkS") (width 0.12) (tstamp b74615ca-1169-4f19-8e8d-827b62c77184))
    (fp_line (start 6.64 12.32) (end 12.64 12.32) (layer "F.SilkS") (width 0.12) (tstamp b784c0ad-ac3a-4cce-9b01-60c5a1d066f7))
    (fp_line (start 3.582929 13.08) (end 3.98 13.08) (layer "F.SilkS") (width 0.12) (tstamp b7a065f7-0def-44b9-a925-707281e4da1f))
    (fp_line (start 3.98 46.99) (end 6.64 46.99) (layer "F.SilkS") (width 0.12) (tstamp b8ae43e7-4e42-47ec-98c1-0ac103408930))
    (fp_line (start 3.582929 5.46) (end 3.98 5.46) (layer "F.SilkS") (width 0.12) (tstamp b8d0f444-fcc6-4682-a8c7-0d79db30ad05))
    (fp_line (start 1.042929 4.7) (end 1.497071 4.7) (layer "F.SilkS") (width 0.12) (tstamp b98c3760-fc12-41ca-956d-4b9e74afd3ef))
    (fp_line (start 3.582929 51.18) (end 3.98 51.18) (layer "F.SilkS") (width 0.12) (tstamp bcc3103a-8f2e-4ac5-b70a-f95651c11d31))
    (fp_line (start 1.042929 55.5) (end 1.497071 55.5) (layer "F.SilkS") (width 0.12) (tstamp bd629746-ff2e-43dc-a509-3c96b77cd90c))
    (fp_line (start 1.042929 19.94) (end 1.497071 19.94) (layer "F.SilkS") (width 0.12) (tstamp c1660156-2bfd-49e1-a9a9-301e040aef5e))
    (fp_line (start 12.64 12.32) (end 12.64 13.08) (layer "F.SilkS") (width 0.12) (tstamp c237b25f-c4d1-4e39-b101-a28155fd2b74))
    (fp_line (start 3.98 13.97) (end 6.64 13.97) (layer "F.SilkS") (width 0.12) (tstamp c35f5404-464d-484d-9547-4da68a768877))
    (fp_line (start 1.042929 15.62) (end 1.497071 15.62) (layer "F.SilkS") (width 0.12) (tstamp c63511fd-bdcf-4ec1-aff5-9562ce4a53d6))
    (fp_line (start 3.582929 18.16) (end 3.98 18.16) (layer "F.SilkS") (width 0.12) (tstamp c90d9f89-2e78-4f14-8bd3-792f679febf9))
    (fp_line (start -1.27 -1.27) (end 0 -1.27) (layer "F.SilkS") (width 0.12) (tstamp cad411dc-3a48-4d58-bc4f-51dd319ede76))
    (fp_line (start 3.582929 23.24) (end 3.98 23.24) (layer "F.SilkS") (width 0.12) (tstamp cbc202ca-06ea-48d5-808b-883ee7685f57))
    (fp_line (start 1.042929 42.8) (end 1.497071 42.8) (layer "F.SilkS") (width 0.12) (tstamp cf4e9322-eb7d-4dbd-ad0b-a2ddcdabcaab))
    (fp_line (start 3.582929 32.64) (end 3.98 32.64) (layer "F.SilkS") (width 0.12) (tstamp d019f36d-4635-42e8-827a-c2c0fd48e9c3))
    (fp_line (start 1.042929 10.54) (end 1.497071 10.54) (layer "F.SilkS") (width 0.12) (tstamp d0c725dc-2b39-4ca0-bbec-b174b8df75b5))
    (fp_line (start -1.27 0) (end -1.27 -1.27) (layer "F.SilkS") (width 0.12) (tstamp d10b1987-2812-4c56-8f2a-ef7320add6e1))
    (fp_line (start 12.64 7.24) (end 12.64 8) (layer "F.SilkS") (width 0.12) (tstamp d24de0fc-caf0-43d7-be6e-c57e63487b12))
    (fp_line (start 6.64 35.18) (end 12.64 35.18) (layer "F.SilkS") (width 0.12) (tstamp d2a2e9a0-67fb-4998-b30b-2b7764d55bda))
    (fp_line (start 1.042929 38.48) (end 1.497071 38.48) (layer "F.SilkS") (width 0.12) (tstamp d3a43225-ca2d-42a6-9899-4962d35456e4))
    (fp_line (start 1.042929 53.72) (end 1.497071 53.72) (layer "F.SilkS") (width 0.12) (tstamp d3e83042-c140-43b3-893c-6406b624a994))
    (fp_line (start 3.98 52.07) (end 6.64 52.07) (layer "F.SilkS") (width 0.12) (tstamp d57dee88-85da-4a09-8cc1-3103b8a98f2a))
    (fp_line (start 1.042929 2.92) (end 1.497071 2.92) (layer "F.SilkS") (width 0.12) (tstamp d7ae647f-1cd7-4632-a6cc-812edc50bb32))
    (fp_line (start 1.042929 30.1) (end 1.497071 30.1) (layer "F.SilkS") (width 0.12) (tstamp d9199fc2-854a-464f-8577-6017d218359a))
    (fp_line (start 12.64 30.86) (end 6.64 30.86) (layer "F.SilkS") (width 0.12) (tstamp dc6802c3-f810-444b-962f-0c249aeb7110))
    (fp_line (start 12.64 28.32) (end 6.64 28.32) (layer "F.SilkS") (width 0.12) (tstamp e0d6962f-baf3-4635-b4af-3a46f3297787))
    (fp_line (start 1.042929 14.86) (end 1.497071 14.86) (layer "F.SilkS") (width 0.12) (tstamp e2606cb1-1673-4917-a1f9-75229d0dee1c))
    (fp_line (start 12.64 35.18) (end 12.64 35.94) (layer "F.SilkS") (width 0.12) (tstamp e2cf23ff-c9ea-4882-ae43-fc01bc503aa2))
    (fp_line (start 6.64 9.78) (end 12.64 9.78) (layer "F.SilkS") (width 0.12) (tstamp e4a6274e-6a68-48bd-8001-42cc7d38708b))
    (fp_line (start 3.582929 55.5) (end 3.98 55.5) (layer "F.SilkS") (width 0.12) (tstamp e61731be-820d-49ea-9e33-f3c409867912))
    (fp_line (start 3.582929 7.24) (end 3.98 7.24) (layer "F.SilkS") (width 0.12) (tstamp e70dddbf-4ecd-44a2-be6e-2118ea94a829))
    (fp_line (start 6.64 25.02) (end 12.64 25.02) (layer "F.SilkS") (width 0.12) (tstamp e797c668-1ba0-4b39-962f-f2ccbb2b965b))
    (fp_line (start 12.64 2.16) (end 12.64 2.92) (layer "F.SilkS") (width 0.12) (tstamp e80b5869-8f69-42ba-886d-e12b140deeb9))
    (fp_line (start 12.64 52.96) (end 12.64 53.72) (layer "F.SilkS") (width 0.12) (tstamp f3e46a07-2ca6-4948-891f-101a9e7a08ae))
    (fp_line (start 3.98 1.27) (end 6.64 1.27) (layer "F.SilkS") (width 0.12) (tstamp f512fd34-61d3-47b9-ba19-589ff42ada98))
    (fp_line (start 1.042929 22.48) (end 1.497071 22.48) (layer "F.SilkS") (width 0.12) (tstamp f65f3399-152d-4ac1-a51e-94f70a0dd2a4))
    (fp_line (start 6.64 0.16) (end 12.64 0.16) (layer "F.SilkS") (width 0.12) (tstamp f84dee0c-a553-4379-bccc-660ca02c536a))
    (fp_line (start 1.042929 25.78) (end 1.497071 25.78) (layer "F.SilkS") (width 0.12) (tstamp fb7ac0cf-113a-43c6-83f0-a2dd197ce4fe))
    (fp_line (start 12.64 46.1) (end 6.64 46.1) (layer "F.SilkS") (width 0.12) (tstamp fca35a88-fb31-42b5-927e-3160aa4a2d74))
    (fp_line (start 12.64 48.64) (end 6.64 48.64) (layer "F.SilkS") (width 0.12) (tstamp fd590f68-1f4b-4246-8583-c53f0dbd0d96))
    (fp_line (start 3.582929 37.72) (end 3.98 37.72) (layer "F.SilkS") (width 0.12) (tstamp fdcaa3d1-95b2-4308-b57b-bc0e6ce53f16))
    (fp_line (start 6.64 32.64) (end 12.64 32.64) (layer "F.SilkS") (width 0.12) (tstamp fdd675e1-6f91-4e9e-bc17-c67ba382cd48))
    (fp_line (start -1.8 57.65) (end 13.1 57.65) (layer "F.CrtYd") (width 0.05) (tstamp aaf9587e-414c-4dfa-93f7-cd121f81bec7))
    (fp_line (start 13.1 -1.8) (end -1.8 -1.8) (layer "F.CrtYd") (width 0.05) (tstamp e424a4d0-0a32-4e41-b9ea-b37c0b2c60c1))
    (fp_line (start 13.1 57.65) (end 13.1 -1.8) (layer "F.CrtYd") (width 0.05) (tstamp ec5ec9fb-1532-45a9-a252-0a7a34bc2054))
    (fp_line (start -1.8 -1.8) (end -1.8 57.65) (layer "F.CrtYd") (width 0.05) (tstamp ff3997f0-e4eb-4417-a922-7b5c4e80b2ab))
    (fp_line (start 6.58 40.96) (end 12.58 40.96) (layer "F.Fab") (width 0.1) (tstamp 03f9592b-e463-429b-b080-abaa309e79dd))
    (fp_line (start 6.58 9.84) (end 12.58 9.84) (layer "F.Fab") (width 0.1) (tstamp 04a220f3-2c70-4ea3-80f0-be204527a191))
    (fp_line (start 6.58 37.78) (end 12.58 37.78) (layer "F.Fab") (width 0.1) (tstamp 050b4ca8-e3e0-40ce-b392-51ee2c409caa))
    (fp_line (start 6.58 2.86) (end 12.58 2.86) (layer "F.Fab") (width 0.1) (tstamp 057234dc-fbfb-43b0-9ff5-81fbeaa2312e))
    (fp_line (start 12.58 50.48) (end 12.58 51.12) (layer "F.Fab") (width 0.1) (tstamp 0653f663-3527-4152-b303-6e29ad403427))
    (fp_line (start -0.32 35.88) (end 4.04 35.88) (layer "F.Fab") (width 0.1) (tstamp 06756c1f-e2da-44da-89e0-2e8144af6586))
    (fp_line (start 12.58 40.32) (end 12.58 40.96) (layer "F.Fab") (width 0.1) (tstamp 08d15d7f-8c26-4649-8df6-ec3651a123da))
    (fp_line (start -0.32 47.94) (end -0.32 48.58) (layer "F.Fab") (width 0.1) (tstamp 13eeb00c-15c5-4554-849f-0aa104152083))
    (fp_line (start -0.32 45.4) (end 4.04 45.4) (layer "F.Fab") (width 0.1) (tstamp 1726d38e-58b6-4bfd-9f93-984d995ccb88))
    (fp_line (start -0.32 17.46) (end -0.32 18.1) (layer "F.Fab") (width 0.1) (tstamp 177f96f3-18fc-49e8-bcf4-3ebaa2c09ba9))
    (fp_line (start -0.32 12.38) (end 4.04 12.38) (layer "F.Fab") (width 0.1) (tstamp 198b773c-84bd-4245-a88d-509e275ee493))
    (fp_line (start 12.58 20) (end 12.58 20.64) (layer "F.Fab") (width 0.1) (tstamp 1a0f2ed9-2ffc-4fbc-8191-b3d87ced2aa5))
    (fp_line (start 12.58 25.08) (end 12.58 25.72) (layer "F.Fab") (width 0.1) (tstamp 1bc4d7e7-351d-4d69-9a2b-e413aaf842b5))
    (fp_line (start -0.32 38.42) (end 4.04 38.42) (layer "F.Fab") (width 0.1) (tstamp 1befcecd-dca6-43a4-915a-78d630ed89d7))
    (fp_line (start -0.32 33.34) (end 4.04 33.34) (layer "F.Fab") (width 0.1) (tstamp 22009a6b-f64d-4631-ad70-3040c9b62db9))
    (fp_line (start -0.32 22.54) (end 4.04 22.54) (layer "F.Fab") (width 0.1) (tstamp 228f8094-cc81-45ae-9c78-6294f2f563ec))
    (fp_line (start 12.58 55.56) (end 12.58 56.2) (layer "F.Fab") (width 0.1) (tstamp 234dd10e-c011-4a87-942e-f9911ba94297))
    (fp_line (start 6.58 22.54) (end 12.58 22.54) (layer "F.Fab") (width 0.1) (tstamp 247269a7-8d45-41a4-bdf9-6a7511991bd4))
    (fp_line (start 6.58 55.56) (end 12.58 55.56) (layer "F.Fab") (width 0.1) (tstamp 24ba62ad-f9ba-4d06-9412-abd7fbd1dcc4))
    (fp_line (start -0.32 50.48) (end -0.32 51.12) (layer "F.Fab") (width 0.1) (tstamp 27e648b7-8b99-48c8-b63c-aaa957cacf1c))
    (fp_line (start 6.58 33.34) (end 12.58 33.34) (layer "F.Fab") (width 0.1) (tstamp 2883820e-0d6c-40ff-8c7a-d0cd3541d980))
    (fp_line (start 12.58 30.16) (end 12.58 30.8) (layer "F.Fab") (width 0.1) (tstamp 2935b0a3-adb3-43cf-8e79-9ac31c3c4872))
    (fp_line (start -0.32 2.22) (end 4.04 2.22) (layer "F.Fab") (width 0.1) (tstamp 2a5972db-8de0-4f54-9a94-be25c4060b21))
    (fp_line (start 6.58 -0.32) (end 12.58 -0.32) (layer "F.Fab") (width 0.1) (tstamp 2de42a6d-ee15-45ee-b1f0-d6ae67e51b2d))
    (fp_line (start 6.58 53.02) (end 12.58 53.02) (layer "F.Fab") (width 0.1) (tstamp 2f66aed6-994a-4685-92fc-c99adb003d9f))
    (fp_line (start -0.32 18.1) (end 4.04 18.1) (layer "F.Fab") (width 0.1) (tstamp 30b202da-9bd0-4c33-a80b-7c971abf260c))
    (fp_line (start -0.32 20.64) (end 4.04 20.64) (layer "F.Fab") (width 0.1) (tstamp 31f6e803-8c2d-41fd-8096-53913090e412))
    (fp_line (start 6.58 4.76) (end 12.58 4.76) (layer "F.Fab") (width 0.1) (tstamp 32a5cdc4-528f-418c-84b7-fb00cd884304))
    (fp_line (start 6.58 25.08) (end 12.58 25.08) (layer "F.Fab") (width 0.1) (tstamp 32ae236f-2342-4c97-aa81-1e6d53be0c8b))
    (fp_line (start -0.32 14.92) (end -0.32 15.56) (layer "F.Fab") (width 0.1) (tstamp 377f27dd-d7f4-462a-942e-eeb7e6d623f3))
    (fp_line (start 12.58 45.4) (end 12.58 46.04) (layer "F.Fab") (width 0.1) (tstamp 38286b7f-de41-4056-a6ee-95a2eb9d2eee))
    (fp_line (start 12.58 4.76) (end 12.58 5.4) (layer "F.Fab") (width 0.1) (tstamp 3903a2f1-74d9-46b1-90f1-13d5730c9ffc))
    (fp_line (start 4.04 57.15) (end 4.04 -0.635) (layer "F.Fab") (width 0.1) (tstamp 3cfa1055-a582-493e-b39f-5a7ba62f511d))
    (fp_line (start -0.32 4.76) (end 4.04 4.76) (layer "F.Fab") (width 0.1) (tstamp 3d371761-33e0-4113-b01c-05b1cf584c76))
    (fp_line (start -0.32 20) (end 4.04 20) (layer "F.Fab") (width 0.1) (tstamp 3d4e1729-680e-4042-9f33-beab167b390e))
    (fp_line (start 6.58 -1.27) (end 6.58 57.15) (layer "F.Fab") (width 0.1) (tstamp 3e539cd9-281f-4a89-98b1-5a0d08eeb01f))
    (fp_line (start 6.58 14.92) (end 12.58 14.92) (layer "F.Fab") (width 0.1) (tstamp 3f800f65-0b42-491c-8292-3080dcd7221d))
    (fp_line (start -0.32 40.96) (end 4.04 40.96) (layer "F.Fab") (width 0.1) (tstamp 40045daa-ddfd-42ed-9893-7b23bcd307b9))
    (fp_line (start 6.58 42.86) (end 12.58 42.86) (layer "F.Fab") (width 0.1) (tstamp 408b2aa5-7558-447a-920f-460fd4e22132))
    (fp_line (start -0.32 51.12) (end 4.04 51.12) (layer "F.Fab") (width 0.1) (tstamp 4232b46f-a6b5-4c77-bd40-05b73c45d784))
    (fp_line (start -0.32 2.22) (end -0.32 2.86) (layer "F.Fab") (width 0.1) (tstamp 455173cf-03a9-483e-a9f6-66be983307bf))
    (fp_line (start -0.32 32.7) (end -0.32 33.34) (layer "F.Fab") (width 0.1) (tstamp 4863bd7f-7e5c-4b31-893c-149ac3c56251))
    (fp_line (start 6.58 38.42) (end 12.58 38.42) (layer "F.Fab") (width 0.1) (tstamp 48b63b7a-a3ea-4592-8923-41377c9aa862))
    (fp_line (start 6.58 23.18) (end 12.58 23.18) (layer "F.Fab") (width 0.1) (tstamp 5125d0d9-1558-43ed-b94a-f1f7be3a7214))
    (fp_line (start 12.58 -0.32) (end 12.58 0.32) (layer "F.Fab") (width 0.1) (tstamp 523840d0-dce1-4f90-8b87-02a26343ea47))
    (fp_line (start 6.58 13.02) (end 12.58 13.02) (layer "F.Fab") (width 0.1) (tstamp 533366a7-4402-4485-8568-ee283b6aeb58))
    (fp_line (start -0.32 5.4) (end 4.04 5.4) (layer "F.Fab") (width 0.1) (tstamp 54a3512b-d939-4138-842f-5c73e410802c))
    (fp_line (start -0.32 7.3) (end 4.04 7.3) (layer "F.Fab") (width 0.1) (tstamp 565044a0-8083-4cd8-a711-81586726973b))
    (fp_line (start 6.58 2.22) (end 12.58 2.22) (layer "F.Fab") (width 0.1) (tstamp 586be1b1-f7d8-4f6b-b325-56b288d613c4))
    (fp_line (start -0.32 55.56) (end -0.32 56.2) (layer "F.Fab") (width 0.1) (tstamp 5ad7e086-83af-4ddf-8831-794f4df20344))
    (fp_line (start -0.32 43.5) (end 4.04 43.5) (layer "F.Fab") (width 0.1) (tstamp 5b225d86-1b8b-4710-b544-1ec3d993d9c9))
    (fp_line (start 6.58 17.46) (end 12.58 17.46) (layer "F.Fab") (width 0.1) (tstamp 5b25dc7d-08e1-4152-9f50-7bfe1d6e0566))
    (fp_line (start -0.32 42.86) (end 4.04 42.86) (layer "F.Fab") (width 0.1) (tstamp 5e4fc3a1-3eb9-4901-b51d-6ecffe656291))
    (fp_line (start -0.32 2.86) (end 4.04 2.86) (layer "F.Fab") (width 0.1) (tstamp 60765823-abd8-4003-9b46-4f88e31da86c))
    (fp_line (start 12.58 12.38) (end 12.58 13.02) (layer "F.Fab") (width 0.1) (tstamp 612f1a53-8bc5-4372-94de-d4ae23322d8a))
    (fp_line (start 6.58 32.7) (end 12.58 32.7) (layer "F.Fab") (width 0.1) (tstamp 6af06379-584a-4300-a07b-9f04096e8dbf))
    (fp_line (start -0.32 25.08) (end -0.32 25.72) (layer "F.Fab") (width 0.1) (tstamp 6b1664d1-1143-4f2c-84c8-0f2b67a0dfd1))
    (fp_line (start 6.58 35.24) (end 12.58 35.24) (layer "F.Fab") (width 0.1) (tstamp 6ce55bc9-a623-4348-abb9-e3f288907c35))
    (fp_line (start 4.675 -1.27) (end 6.58 -1.27) (layer "F.Fab") (width 0.1) (tstamp 6f4fef92-bf00-45f6-a460-a3a215c00f3d))
    (fp_line (start -0.32 32.7) (end 4.04 32.7) (layer "F.Fab") (width 0.1) (tstamp 755246f9-3b50-4a31-8395-3fc01bcbecf1))
    (fp_line (start 6.58 30.8) (end 12.58 30.8) (layer "F.Fab") (width 0.1) (tstamp 7734692f-9f9c-45c9-b550-6fb0f7dba9fa))
    (fp_line (start -0.32 23.18) (end 4.04 23.18) (layer "F.Fab") (width 0.1) (tstamp 77fbafde-3fdd-4ab5-b0d0-9b510357eca9))
    (fp_line (start -0.32 42.86) (end -0.32 43.5) (layer "F.Fab") (width 0.1) (tstamp 7982b998-65a3-4194-ba13-38039f4f0b87))
    (fp_line (start 12.58 14.92) (end 12.58 15.56) (layer "F.Fab") (width 0.1) (tstamp 7997be0a-3c86-4212-872e-b2954e493805))
    (fp_line (start 6.58 7.3) (end 12.58 7.3) (layer "F.Fab") (width 0.1) (tstamp 7f517547-b306-4e72-8653-d10aa0ab1690))
    (fp_line (start -0.32 17.46) (end 4.04 17.46) (layer "F.Fab") (width 0.1) (tstamp 7fab263e-9fb2-4abd-a620-2ca5974c09c0))
    (fp_line (start 6.58 35.88) (end 12.58 35.88) (layer "F.Fab") (width 0.1) (tstamp 80a00238-ad67-436c-b721-d0b9fd8333f3))
    (fp_line (start -0.32 9.84) (end -0.32 10.48) (layer "F.Fab") (width 0.1) (tstamp 83f08423-48ca-486b-ae55-e8b295539dc1))
    (fp_line (start 6.58 20.64) (end 12.58 20.64) (layer "F.Fab") (width 0.1) (tstamp 88486130-1e75-489e-a3f3-c636ab8ffceb))
    (fp_line (start 12.58 17.46) (end 12.58 18.1) (layer "F.Fab") (width 0.1) (tstamp 8911c08f-1465-414d-b1e5-1731202fe44c))
    (fp_line (start -0.32 -0.32) (end 4.04 -0.32) (layer "F.Fab") (width 0.1) (tstamp 8b4b35c2-8c51-40e7-989f-1ed286d6ee9b))
    (fp_line (start -0.32 30.16) (end -0.32 30.8) (layer "F.Fab") (width 0.1) (tstamp 8c7fbbdd-0278-4985-81ae-0c880233d1a6))
    (fp_line (start -0.32 4.76) (end -0.32 5.4) (layer "F.Fab") (width 0.1) (tstamp 8d612178-5fc2-484e-809d-4447123ce736))
    (fp_line (start -0.32 13.02) (end 4.04 13.02) (layer "F.Fab") (width 0.1) (tstamp 8eebbe0f-bdd5-4469-980f-6b4b5311a3b2))
    (fp_line (start 6.58 43.5) (end 12.58 43.5) (layer "F.Fab") (width 0.1) (tstamp 95c4a04c-1bd3-4ac8-b0e1-4366e89506f7))
    (fp_line (start 6.58 45.4) (end 12.58 45.4) (layer "F.Fab") (width 0.1) (tstamp 97cd3d5d-2697-4a7c-9926-c464db7c5425))
    (fp_line (start 6.58 0.32) (end 12.58 0.32) (layer "F.Fab") (width 0.1) (tstamp 98c2f747-9aae-4021-912f-7cb7f1d1ecc1))
    (fp_line (start 12.58 37.78) (end 12.58 38.42) (layer "F.Fab") (width 0.1) (tstamp 9a023da3-c687-4b20-af8a-796a92947c6f))
    (fp_line (start 12.58 7.3) (end 12.58 7.94) (layer "F.Fab") (width 0.1) (tstamp 9a8f08e6-aa4a-49bb-b4d2-ccdf8d4813bf))
    (fp_line (start 6.58 50.48) (end 12.58 50.48) (layer "F.Fab") (width 0.1) (tstamp 9b91a12b-df55-4735-ac44-e96964d2970e))
    (fp_line (start 6.58 56.2) (end 12.58 56.2) (layer "F.Fab") (width 0.1) (tstamp 9b9c60e6-a996-4f45-877b-a816e3d8084c))
    (fp_line (start -0.32 0.32) (end 4.04 0.32) (layer "F.Fab") (width 0.1) (tstamp 9c6a81ec-3f81-4989-9e68-87d3d5885c9f))
    (fp_line (start 12.58 22.54) (end 12.58 23.18) (layer "F.Fab") (width 0.1) (tstamp 9caf7b66-1647-48f2-8e21-89fd57525e83))
    (fp_line (start -0.32 53.02) (end 4.04 53.02) (layer "F.Fab") (width 0.1) (tstamp 9ceedf54-801f-4b52-b33a-6a7660757d8e))
    (fp_line (start -0.32 46.04) (end 4.04 46.04) (layer "F.Fab") (width 0.1) (tstamp 9e974508-fbdd-4050-853d-b2eb95470ac8))
    (fp_line (start -0.32 53.66) (end 4.04 53.66) (layer "F.Fab") (width 0.1) (tstamp 9f260c2d-cb9b-4598-8e93-532fd8236bfd))
    (fp_line (start -0.32 25.72) (end 4.04 25.72) (layer "F.Fab") (width 0.1) (tstamp 9f8652be-941e-435d-aad2-2379ce252f38))
    (fp_line (start -0.32 9.84) (end 4.04 9.84) (layer "F.Fab") (width 0.1) (tstamp a21ba60f-c0c8-4029-8142-7960b909f0a2))
    (fp_line (start -0.32 28.26) (end 4.04 28.26) (layer "F.Fab") (width 0.1) (tstamp a770dbd8-29ad-421f-89d4-d0ee80b788c7))
    (fp_line (start -0.32 35.24) (end 4.04 35.24) (layer "F.Fab") (width 0.1) (tstamp a85eb532-cc55-4dad-a0e5-24560c591a28))
    (fp_line (start -0.32 56.2) (end 4.04 56.2) (layer "F.Fab") (width 0.1) (tstamp a97ceb9e-3dd6-4795-b08a-2ae2ec625c82))
    (fp_line (start 12.58 53.02) (end 12.58 53.66) (layer "F.Fab") (width 0.1) (tstamp ab4f405d-6365-4635-9da6-9bdfdc32a2c7))
    (fp_line (start 6.58 10.48) (end 12.58 10.48) (layer "F.Fab") (width 0.1) (tstamp abc0076f-eeff-443b-9d26-84a18c273d7a))
    (fp_line (start 12.58 27.62) (end 12.58 28.26) (layer "F.Fab") (width 0.1) (tstamp afa865dd-7618-46a4-a56d-f927b28a7930))
    (fp_line (start 6.58 5.4) (end 12.58 5.4) (layer "F.Fab") (width 0.1) (tstamp b0851b5e-9cbe-4b2d-aed0-5bcaae2c6680))
    (fp_line (start -0.32 55.56) (end 4.04 55.56) (layer "F.Fab") (width 0.1) (tstamp b3eaef5b-5e16-4bd8-adf6-4650be19f8d7))
    (fp_line (start 6.58 25.72) (end 12.58 25.72) (layer "F.Fab") (width 0.1) (tstamp b51c8cad-3c94-4c11-8736-624a4506c417))
    (fp_line (start -0.32 47.94) (end 4.04 47.94) (layer "F.Fab") (width 0.1) (tstamp b6a6178b-a3c4-4c36-8c3d-2fd6f1c1aaee))
    (fp_line (start 6.58 53.66) (end 12.58 53.66) (layer "F.Fab") (width 0.1) (tstamp b8af9aba-ca6d-436f-9bc5-d66e7a31e9b7))
    (fp_line (start 6.58 28.26) (end 12.58 28.26) (layer "F.Fab") (width 0.1) (tstamp b8cc3a9e-f237-4517-b9d3-8d2ae011cc89))
    (fp_line (start -0.32 10.48) (end 4.04 10.48) (layer "F.Fab") (width 0.1) (tstamp bb8cba1c-d553-4d0d-9a03-7350541ab1fe))
    (fp_line (start -0.32 30.8) (end 4.04 30.8) (layer "F.Fab") (width 0.1) (tstamp bbdee8c3-e493-420b-b01a-938fb04369f9))
    (fp_line (start -0.32 20) (end -0.32 20.64) (layer "F.Fab") (width 0.1) (tstamp bc1075b8-1664-4721-b104-392d7523d39a))
    (fp_line (start -0.32 48.58) (end 4.04 48.58) (layer "F.Fab") (width 0.1) (tstamp bcf93146-2d2e-40a7-9349-d1aec53ae595))
    (fp_line (start -0.32 14.92) (end 4.04 14.92) (layer "F.Fab") (width 0.1) (tstamp bee886cb-9e20-4ca2-ba4a-fb286f53f06d))
    (fp_line (start 12.58 47.94) (end 12.58 48.58) (layer "F.Fab") (width 0.1) (tstamp c072d9bd-c04a-48fd-82da-ea986baca9d6))
    (fp_line (start 12.58 2.22) (end 12.58 2.86) (layer "F.Fab") (width 0.1) (tstamp c1c15257-9f4c-4c3e-87ad-ea5f4949f56c))
    (fp_line (start -0.32 40.32) (end 4.04 40.32) (layer "F.Fab") (width 0.1) (tstamp c2236bc0-8890-4441-b094-c647a0a7482e))
    (fp_line (start -0.32 37.78) (end -0.32 38.42) (layer "F.Fab") (width 0.1) (tstamp c3fe780c-242e-49f0-9cef-65241be56a0e))
    (fp_line (start 12.58 32.7) (end 12.58 33.34) (layer "F.Fab") (width 0.1) (tstamp c763ce99-dfa0-4e19-ab5e-0d1881819e4c))
    (fp_line (start -0.32 30.16) (end 4.04 30.16) (layer "F.Fab") (width 0.1) (tstamp ccc5a314-6705-4bc5-a258-1b9d3e8e6eca))
    (fp_line (start -0.32 -0.32) (end -0.32 0.32) (layer "F.Fab") (width 0.1) (tstamp cf7656bb-073c-4f2a-98a0-c6492df20d8d))
    (fp_line (start -0.32 37.78) (end 4.04 37.78) (layer "F.Fab") (width 0.1) (tstamp d14ed25f-4fbe-4b96-8c1a-b24ad0c1998d))
    (fp_line (start -0.32 12.38) (end -0.32 13.02) (layer "F.Fab") (width 0.1) (tstamp d293d339-d9a0-4dcc-8318-d87de6a9f137))
    (fp_line (start 6.58 40.32) (end 12.58 40.32) (layer "F.Fab") (width 0.1) (tstamp d2d73884-b8fb-4ea2-b0a9-cdc4c967af16))
    (fp_line (start 12.58 42.86) (end 12.58 43.5) (layer "F.Fab") (width 0.1) (tstamp d33e075e-feac-48a6-8c13-09f3b03818af))
    (fp_line (start -0.32 7.94) (end 4.04 7.94) (layer "F.Fab") (width 0.1) (tstamp d4faa620-10cf-4552-bf42-6e5309858985))
    (fp_line (start 6.58 18.1) (end 12.58 18.1) (layer "F.Fab") (width 0.1) (tstamp d504f916-bd51-4859-b227-e833c6894802))
    (fp_line (start 6.58 51.12) (end 12.58 51.12) (layer "F.Fab") (width 0.1) (tstamp dcbc287e-eac2-450a-ad72-8ef76327d390))
    (fp_line (start 12.58 35.24) (end 12.58 35.88) (layer "F.Fab") (width 0.1) (tstamp dcfba9dd-5afb-4cfa-ab56-8e2c86aab515))
    (fp_line (start -0.32 27.62) (end 4.04 27.62) (layer "F.Fab") (width 0.1) (tstamp de977677-871c-4b47-8597-952fe605fee3))
    (fp_line (start 6.58 7.94) (end 12.58 7.94) (layer "F.Fab") (width 0.1) (tstamp dee9833f-6480-4359-8bfe-29e0a7f68843))
    (fp_line (start 12.58 9.84) (end 12.58 10.48) (layer "F.Fab") (width 0.1) (tstamp e053cd79-5612-43cc-9b8d-02e9505e23bd))
    (fp_line (start -0.32 50.48) (end 4.04 50.48) (layer "F.Fab") (width 0.1) (tstamp e29a79a7-4b4b-4b78-b5e3-7b731fa59b3e))
    (fp_line (start 6.58 47.94) (end 12.58 47.94) (layer "F.Fab") (width 0.1) (tstamp e3248d06-0eca-4f87-8ef2-ac77b4b53a24))
    (fp_line (start -0.32 25.08) (end 4.04 25.08) (layer "F.Fab") (width 0.1) (tstamp e362cc61-7d28-4e65-aafb-37e48f882950))
    (fp_line (start 6.58 12.38) (end 12.58 12.38) (layer "F.Fab") (width 0.1) (tstamp e37497b7-5b2a-485b-b979-e3ea0eb899a6))
    (fp_line (start 6.58 27.62) (end 12.58 27.62) (layer "F.Fab") (width 0.1) (tstamp e7b61d1f-0af0-4ced-99d9-5e4077b514d1))
    (fp_line (start -0.32 22.54) (end -0.32 23.18) (layer "F.Fab") (width 0.1) (tstamp e92966a8-a9ae-449f-b4d6-b9b6ea129d75))
    (fp_line (start -0.32 15.56) (end 4.04 15.56) (layer "F.Fab") (width 0.1) (tstamp eb517a68-80f3-492c-81f9-5ccf60ea1ddb))
    (fp_line (start 6.58 30.16) (end 12.58 30.16) (layer "F.Fab") (width 0.1) (tstamp eb5e7ff8-bd3b-41e6-8097-efdad0b925de))
    (fp_line (start 6.58 20) (end 12.58 20) (layer "F.Fab") (width 0.1) (tstamp eb9543dc-ceeb-429f-a620-977f1440aa27))
    (fp_line (start 6.58 46.04) (end 12.58 46.04) (layer "F.Fab") (width 0.1) (tstamp ebfda91e-81c6-4ef8-9f05-c240b64a6f90))
    (fp_line (start -0.32 40.32) (end -0.32 40.96) (layer "F.Fab") (width 0.1) (tstamp edbe7e71-994e-420e-b791-0b2a776acddf))
    (fp_line (start 6.58 48.58) (end 12.58 48.58) (layer "F.Fab") (width 0.1) (tstamp edd323c8-6bde-45f5-ba82-a5690c807539))
    (fp_line (start 6.58 57.15) (end 4.04 57.15) (layer "F.Fab") (width 0.1) (tstamp edd736fa-7360-4683-824e-16f0eec99652))
    (fp_line (start 4.04 -0.635) (end 4.675 -1.27) (layer "F.Fab") (width 0.1) (tstamp f017325d-141a-4fa7-90df-81b1abc2ffa0))
    (fp_line (start -0.32 27.62) (end -0.32 28.26) (layer "F.Fab") (width 0.1) (tstamp f184b2d6-727e-419a-90d2-f070aed158e6))
    (fp_line (start -0.32 7.3) (end -0.32 7.94) (layer "F.Fab") (width 0.1) (tstamp f5d10cc4-c48b-4b8d-a85e-084e6a3c4c08))
    (fp_line (start 6.58 15.56) (end 12.58 15.56) (layer "F.Fab") (width 0.1) (tstamp f6a7e9b4-5296-4cc2-8198-a588231aca30))
    (fp_line (start -0.32 53.02) (end -0.32 53.66) (layer "F.Fab") (width 0.1) (tstamp f79e078d-ae5f-4af1-8238-1e176dc2489c))
    (fp_line (start -0.32 45.4) (end -0.32 46.04) (layer "F.Fab") (width 0.1) (tstamp fdc1e7f1-8afb-4e54-8455-81794e4469fa))
    (fp_line (start -0.32 35.24) (end -0.32 35.88) (layer "F.Fab") (width 0.1) (tstamp ffb32167-9be4-4eec-b53b-1255d81a4d1c))
    (pad "1" thru_hole circle locked (at 0 0 270) (size 1.7 1.7) (drill 1) (layers *.Cu *.Mask)
      (net 60 "USR7") (pinfunction "Pin_1") (pintype "passive") (tstamp 74165360-edec-4576-a419-f0b9d7ff3cc0))
    (pad "2" thru_hole oval locked (at 2.54 0 270) (size 1.7 1.7) (drill 1) (layers *.Cu *.Mask)
      (net 15 "USR3") (pinfunction "Pin_2") (pintype "passive") (tstamp 7725c2a3-c537-4785-86d8-23e6452de5f8))
    (pad "3" thru_hole oval locked (at 0 2.54 270) (size 1.7 1.7) (drill 1) (layers *.Cu *.Mask)
      (net 59 "USR6") (pinfunction "Pin_3") (pintype "passive") (tstamp c16a4ac9-0c17-4137-95e9-c158fc7e310f))
    (pad "4" thru_hole oval locked (at 2.54 2.54 270) (size 1.7 1.7) (drill 1) (layers *.Cu *.Mask)
      (net 16 "USR2") (pinfunction "Pin_4") (pintype "passive") (tstamp 67cacc64-001d-4331-8710-db6b30a907de))
    (pad "5" thru_hole oval locked (at 0 5.08 270) (size 1.7 1.7) (drill 1) (layers *.Cu *.Mask)
      (net 58 "USR5") (pinfunction "Pin_5") (pintype "passive") (tstamp dae2ae57-5e06-468a-9be2-d2df6c5fff6f))
    (pad "6" thru_hole oval locked (at 2.54 5.08 270) (size 1.7 1.7) (drill 1) (layers *.Cu *.Mask)
      (net 17 "USR1") (pinfunction "Pin_6") (pintype "passive") (tstamp aff89c5c-da04-4f73-b481-8835c548de99))
    (pad "7" thru_hole oval locked (at 0 7.62 270) (size 1.7 1.7) (drill 1) (layers *.Cu *.Mask)
      (net 57 "RX2") (pinfunction "Pin_7") (pintype "passive") (tstamp 41ce1508-d5e2-44aa-baea-b1cea62cee47))
    (pad "8" thru_hole oval locked (at 2.54 7.62 270) (size 1.7 1.7) (drill 1) (layers *.Cu *.Mask)
      (net 19 "RX") (pinfunction "Pin_8") (pintype "passive") (tstamp 5acd11db-d98a-42bc-98b1-58e3bdb98516))
    (pad "9" thru_hole oval locked (at 0 10.16 270) (size 1.7 1.7) (drill 1) (layers *.Cu *.Mask)
      (net 56 "TX2") (pinfunction "Pin_9") (pintype "passive") (tstamp b69f2fbd-6ba3-49b9-be98-e9a089f1946b))
    (pad "10" thru_hole oval locked (at 2.54 10.16 270) (size 1.7 1.7) (drill 1) (layers *.Cu *.Mask)
      (net 18 "TX") (pinfunction "Pin_10") (pintype "passive") (tstamp 719c6d9a-eec7-4359-8cc0-eb92b7d92789))
    (pad "11" thru_hole oval locked (at 0 12.7 270) (size 1.7 1.7) (drill 1) (layers *.Cu *.Mask)
      (net 55 "D15") (pinfunction "Pin_11") (pintype "passive") (tstamp 069e2e5c-962b-4f91-b2b5-4b41691884ee))
    (pad "12" thru_hole oval locked (at 2.54 12.7 270) (size 1.7 1.7) (drill 1) (layers *.Cu *.Mask)
      (net 47 "D7") (pinfunction "Pin_12") (pintype "passive") (tstamp 207feb18-cbcd-463e-8f75-bf8d278e9412))
    (pad "13" thru_hole oval locked (at 0 15.24 270) (size 1.7 1.7) (drill 1) (layers *.Cu *.Mask)
      (net 54 "D14") (pinfunction "Pin_13") (pintype "passive") (tstamp 9276a4d3-7b7d-42b9-b1cf-7b9d9072612a))
    (pad "14" thru_hole oval locked (at 2.54 15.24 270) (size 1.7 1.7) (drill 1) (layers *.Cu *.Mask)
      (net 46 "D6") (pinfunction "Pin_14") (pintype "passive") (tstamp e84b6f5c-4b58-46f8-b3b0-587b87e0c14a))
    (pad "15" thru_hole oval locked (at 0 17.78 270) (size 1.7 1.7) (drill 1) (layers *.Cu *.Mask)
      (net 53 "D13") (pinfunction "Pin_15") (pintype "passive") (tstamp 419c9183-fc24-4dac-89e5-8e65c723dd8a))
    (pad "16" thru_hole oval locked (at 2.54 17.78 270) (size 1.7 1.7) (drill 1) (layers *.Cu *.Mask)
      (net 45 "D5") (pinfunction "Pin_16") (pintype "passive") (tstamp f94d9322-9e63-422e-9b4d-38295861f2d2))
    (pad "17" thru_hole oval locked (at 0 20.32 270) (size 1.7 1.7) (drill 1) (layers *.Cu *.Mask)
      (net 52 "D12") (pinfunction "Pin_17") (pintype "passive") (tstamp 986b5c64-1865-4dff-8b21-1fd46b4c5b12))
    (pad "18" thru_hole oval locked (at 2.54 20.32 270) (size 1.7 1.7) (drill 1) (layers *.Cu *.Mask)
      (net 44 "D4") (pinfunction "Pin_18") (pintype "passive") (tstamp 9bf4f5e0-2ede-4cd7-abc5-f0a25f7c939b))
    (pad "19" thru_hole oval locked (at 0 22.86 270) (size 1.7 1.7) (drill 1) (layers *.Cu *.Mask)
      (net 51 "D11") (pinfunction "Pin_19") (pintype "passive") (tstamp 79440734-9573-4a6c-9c06-4f6b5749f396))
    (pad "20" thru_hole oval locked (at 2.54 22.86 270) (size 1.7 1.7) (drill 1) (layers *.Cu *.Mask)
      (net 43 "D3") (pinfunction "Pin_20") (pintype "passive") (tstamp 7b8a705c-2815-4db6-8a54-afe9f4da9b1f))
    (pad "21" thru_hole oval locked (at 0 25.4 270) (size 1.7 1.7) (drill 1) (layers *.Cu *.Mask)
      (net 50 "D10") (pinfunction "Pin_21") (pintype "passive") (tstamp f3b87233-f4e7-43f3-8ad7-91ff2ebd9105))
    (pad "22" thru_hole oval locked (at 2.54 25.4 270) (size 1.7 1.7) (drill 1) (layers *.Cu *.Mask)
      (net 42 "D2") (pinfunction "Pin_22") (pintype "passive") (tstamp b3c10edc-31e3-42fb-96c3-a790aa43450d))
    (pad "23" thru_hole oval locked (at 0 27.94 270) (size 1.7 1.7) (drill 1) (layers *.Cu *.Mask)
      (net 49 "D9") (pinfunction "Pin_23") (pintype "passive") (tstamp 839e41fb-ba61-47e0-9038-a6bc8360104e))
    (pad "24" thru_hole oval locked (at 2.54 27.94 270) (size 1.7 1.7) (drill 1) (layers *.Cu *.Mask)
      (net 41 "D1") (pinfunction "Pin_24") (pintype "passive") (tstamp 47e9f117-78ed-41cd-85a3-b9283f6d4b2e))
    (pad "25" thru_hole oval locked (at 0 30.48 270) (size 1.7 1.7) (drill 1) (layers *.Cu *.Mask)
      (net 48 "D8") (pinfunction "Pin_25") (pintype "passive") (tstamp 7c3bea13-83b0-43b9-a96b-629f76932f73))
    (pad "26" thru_hole oval locked (at 2.54 30.48 270) (size 1.7 1.7) (drill 1) (layers *.Cu *.Mask)
      (net 40 "D0") (pinfunction "Pin_26") (pintype "passive") (tstamp 89e7f73a-86f1-4aeb-9ede-73d9bb9a09bc))
    (pad "27" thru_hole oval locked (at 0 33.02 270) (size 1.7 1.7) (drill 1) (layers *.Cu *.Mask)
      (net 7 "~{NMI}") (pinfunction "Pin_27") (pintype "passive") (tstamp cb316005-cf0c-4dff-b4ed-9849424d4ffc))
    (pad "28" thru_hole oval locked (at 2.54 33.02 270) (size 1.7 1.7) (drill 1) (layers *.Cu *.Mask)
      (net 10 "~{IORQ}") (pinfunction "Pin_28") (pintype "passive") (tstamp 05d7cbe9-bf02-4843-b71c-0a02b327e20f))
    (pad "29" thru_hole oval locked (at 0 35.56 270) (size 1.7 1.7) (drill 1) (layers *.Cu *.Mask)
      (net 2 "~{WAIT}") (pinfunction "Pin_29") (pintype "passive") (tstamp a76fe54c-2ada-4e5a-b30b-e80914657366))
    (pad "30" thru_hole oval locked (at 2.54 35.56 270) (size 1.7 1.7) (drill 1) (layers *.Cu *.Mask)
      (net 5 "~{RD}") (pinfunction "Pin_30") (pintype "passive") (tstamp cd125975-88be-43bc-81df-afe5446ec0cd))
    (pad "31" thru_hole oval locked (at 0 38.1 270) (size 1.7 1.7) (drill 1) (layers *.Cu *.Mask)
      (net 13 "~{BUSRQ}") (pinfunction "Pin_31") (pintype "passive") (tstamp 360e15f2-283a-49fd-8b08-3ed65de99fe8))
    (pad "32" thru_hole oval locked (at 2.54 38.1 270) (size 1.7 1.7) (drill 1) (layers *.Cu *.Mask)
      (net 1 "~{WR}") (pinfunction "Pin_32") (pintype "passive") (tstamp 3b4d36ea-ebc3-4e6c-b127-d2fc1b7986f2))
    (pad "33" thru_hole oval locked (at 0 40.64 270) (size 1.7 1.7) (drill 1) (layers *.Cu *.Mask)
      (net 12 "~{HALT}") (pinfunction "Pin_33") (pintype "passive") (tstamp 5ce454e5-596e-46bf-a34c-2ed2e5286b0f))
    (pad "34" thru_hole oval locked (at 2.54 40.64 270) (size 1.7 1.7) (drill 1) (layers *.Cu *.Mask)
      (net 8 "~{MREQ}") (pinfunction "Pin_34") (pintype "passive") (tstamp 2f6a0472-01df-4c5f-a6f5-82206d987ac2))
    (pad "35" thru_hole oval locked (at 0 43.18 270) (size 1.7 1.7) (drill 1) (layers *.Cu *.Mask)
      (net 14 "~{BUSACK}") (pinfunction "Pin_35") (pintype "passive") (tstamp 388e2d2f-dbed-4666-9d12-8100f3607690))
    (pad "36" thru_hole oval locked (at 2.54 43.18 270) (size 1.7 1.7) (drill 1) (layers *.Cu *.Mask)
      (net 11 "~{INT}") (pinfunction "Pin_36") (pintype "passive") (tstamp 3f078b01-e271-41a1-86bc-2cdb3eae1a01))
    (pad "37" thru_hole oval locked (at 0 45.72 270) (size 1.7 1.7) (drill 1) (layers *.Cu *.Mask)
      (net 21 "CLK2") (pinfunction "Pin_37") (pintype "passive") (tstamp 02e75a6a-579a-48c4-9525-3b1c3a746db4))
    (pad "38" thru_hole oval locked (at 2.54 45.72 270) (size 1.7 1.7) (drill 1) (layers *.Cu *.Mask)
      (net 22 "CLK") (pinfunction "Pin_38") (pintype "passive") (tstamp 23c9b7af-544d-4352-a461-cbe6a6acb419))
    (pad "39" thru_hole oval locked (at 0 48.26 270) (size 1.7 1.7) (drill 1) (layers *.Cu *.Mask)
      (net 6 "~{PAGE}") (pinfunction "Pin_39") (pintype "passive") (tstamp 6e9b1eed-f22b-4631-bc5e-e3f9c53c99b7))
    (pad "40" thru_hole oval locked (at 2.54 48.26 270) (size 1.7 1.7) (drill 1) (layers *.Cu *.Mask)
      (net 4 "~{RESET}") (pinfunction "Pin_40") (pintype "passive") (tstamp b43419e1-ec2a-4ac1-83e1-1f8e1e9c172d))
    (pad "41" thru_hole oval locked (at 0 50.8 270) (size 1.7 1.7) (drill 1) (layers *.Cu *.Mask)
      (net 3 "~{RFSH}") (pinfunction "Pin_41") (pintype "passive") (tstamp c9eef3af-c305-4647-affd-fb114203f8a4))
    (pad "42" thru_hole oval locked (at 2.54 50.8 270) (size 1.7 1.7) (drill 1) (layers *.Cu *.Mask)
      (net 9 "~{M1}") (pinfunction "Pin_42") (pintype "passive") (tstamp 601759ff-fcad-499a-bb10-c6a52df8b9cc))
    (pad "43" thru_hole oval locked (at 0 53.34 270) (size 1.7 1.7) (drill 1) (layers *.Cu *.Mask)
      (net 39 "5V") (pinfunction "Pin_43") (pintype "passive") (tstamp 82f66f5b-2edf-4dd8-aa9e-0110a187f161))
    (pad "44" thru_hole oval locked (at 2.54 53.34 270) (size 1.7 1.7) (drill 1) (layers *.Cu *.Mask)
      (net 39 "5V") (pinfunction "Pin_44") (pintype "passive") (tstamp 53b78824-db33-4e1b-93fe-9eb348a6bc4a))
    (pad "45" thru_hole oval locked (at 0 55.88 270) (size 1.7 1.7) (drill 1) (layers *.Cu *.Mask)
      (net 20 "GND") (pinfunction "Pin_45") (pintype "passive") (tstamp 06dd8c65-1dd0-4311-a26d-de5a8f7ae5cb))
    (pad "46" thru_hole oval locked (at 2.54 55.88 270) (size 1.7 1.7) (drill 1) (layers *.Cu *.Mask)
      (net 20 "GND") (pinfunction "Pin_46") (pintype "passive") (tstamp 7ce73447-3c5e-44fc-b74f-c0c8b5990f54))
    (model "${KICAD6_3DMODEL_DIR}/Connector_PinHeader_2.54mm.3dshapes/PinHeader_2x23_P2.54mm_Horizontal.wrl"
      (offset (xyz 0 0 0))
      (scale (xyz 1 1 1))
      (rotate (xyz 0 0 0))
    )
  )

  (gr_line (start 100.9316 130.90652) (end 100.96716 130.90652) (layer "F.SilkS") (width 0.2) (tstamp 8b77431a-5d0b-4455-892b-6cd6cc261040))
  (gr_line (start 98.18078 130.90652) (end 98.18078 121.97588) (layer "F.SilkS") (width 0.2) (tstamp aecbb497-19d4-4722-925d-a3022d7d3e48))
  (gr_line (start 98.18078 121.97588) (end 99.36188 120.79478) (layer "F.SilkS") (width 0.2) (tstamp c03ca7b3-37c8-4e8c-9089-04df6914a5cb))
  (gr_line (start 100.9316 120.79478) (end 100.9316 130.90652) (layer "F.SilkS") (width 0.2) (tstamp caa782b1-bc27-456e-80c9-ac1fcac1c767))
  (gr_line (start 99.36188 120.79478) (end 100.9316 120.79478) (layer "F.SilkS") (width 0.2) (tstamp f791d93f-f4fe-48e5-991c-bd4657ce7092))
  (gr_line (start 97.9344 96.2914) (end 97.9344 131.1402) (layer "Edge.Cuts") (width 0.15) (tstamp 10f16439-6a1b-4e0c-9240-2ad60a5a8e40))
  (gr_line (start 97.9344 131.1402) (end 197.9344 131.1402) (layer "Edge.Cuts") (width 0.15) (tstamp 7393aa24-a8aa-4d38-b79c-233243ba3e45))
  (gr_line (start 112.9458 81.28) (end 97.9344 96.2914) (layer "Edge.Cuts") (width 0.15) (tstamp 74e4391a-7f47-44ef-a94e-d37d3460ed77))
  (gr_arc (start 192.7528 81.28) (mid 196.416413 82.796856) (end 197.9344 86.46) (layer "Edge.Cuts") (width 0.15) (tstamp a85ff092-280f-4226-8e15-815254490457))
  (gr_line (start 192.7528 81.28) (end 112.9458 81.28) (layer "Edge.Cuts") (width 0.15) (tstamp b1de6077-f87a-4152-ab6a-825377b07378))
  (gr_line (start 197.9344 86.46) (end 197.9344 131.1402) (layer "Edge.Cuts") (width 0.15) (tstamp d163f14b-3472-41dc-a4fa-d901df833b3c))
  (gr_text "Pin 1" (at 99.71748 124.37618 90) (layer "F.SilkS") (tstamp d9e27101-abf5-4894-8108-322f79f8ad0f)
    (effects (font (size 1.5 1.5) (thickness 0.3)))
  )

)
